Tarea 2_1/src/build/module_detector_tb.vcd
$date
	Mon Sep 30 18:42:11 2024
$end
$version
	Icarus Verilog
$end
$timescale
	1ps
$end
$scope module detector_tb $end
$var wire 4 ! tecla_pre [3:0] $end
$var wire 1 " suma $end
$var wire 1 # igual $end
$var reg 1 $ clk $end
$var reg 1 % col_0 $end
$var reg 1 & col_1 $end
$var reg 1 ' col_2 $end
$var reg 1 ( col_3 $end
$var reg 4 ) fila [3:0] $end
$var reg 1 * rst $end
$scope module detector_columna_tb $end
$var wire 1 $ clk $end
$var wire 1 % col_0 $end
$var wire 1 & col_1 $end
$var wire 1 ' col_2 $end
$var wire 1 ( col_3 $end
$var wire 4 + fila [3:0] $end
$var wire 1 * rst $end
$var wire 4 , tecla_pre [3:0] $end
$var wire 1 " suma $end
$var wire 1 # igual $end
$var reg 5 - estado_act [4:0] $end
$var reg 5 . estado_sig [4:0] $end
$var reg 4 / salida [3:0] $end
$upscope $end
$upscope $end
$enddefinitions $end
$comment Show the parameter values. $end
$dumpall
$end
#0
$dumpvars
bx /
b0 .
bx -
bx ,
b0 +
1*
b0 )
0(
0'
0&
0%
0$
x#
x"
bx !
$end
#10000
b0 .
1%
b1 )
b1 +
0*
#500000
b100 .
b0 -
0"
0#
b0 !
b0 ,
b0 /
1$
#1000000
0$
#1500000
b0 .
b100 -
1$
#2000000
0$
#2500000
b100 .
b0 -
1$
#3000000
0$
#3500000
b0 .
b100 -
1$
#4000000
0$
#4500000
b100 .
b0 -
1$
#5000000
0$
#5020000
b101 .
1&
0%
#5500000
b0 .
b1 !
b1 ,
b1 /
b101 -
1$
#6000000
0$
#6500000
b101 .
b0 -
b0 !
b0 ,
b0 /
1$
#7000000
0$
#7500000
b0 .
b1 !
b1 ,
b1 /
b101 -
1$
#8000000
0$
#8500000
b101 .
b0 -
b0 !
b0 ,
b0 /
1$
#9000000
0$
#9500000
b0 .
b1 !
b1 ,
b1 /
b101 -
1$
#10000000
0$
#10500000
b101 .
b0 -
b0 !
b0 ,
b0 /
1$
#11000000
0$
#11020000
b110 .
1'
0&
#11500000
b0 .
b10 !
b10 ,
b10 /
b110 -
1$
#12000000
0$
#12500000
b110 .
b0 -
b0 !
b0 ,
b0 /
1$
#13000000
0$
#13500000
b0 .
b10 !
b10 ,
b10 /
b110 -
1$
#14000000
0$
#14500000
b110 .
b0 -
b0 !
b0 ,
b0 /
1$
#15000000
0$
#15500000
b0 .
b10 !
b10 ,
b10 /
b110 -
1$
#16000000
0$
#16500000
b110 .
b0 -
b0 !
b0 ,
b0 /
1$
#17000000
0$
#17020000
b111 .
1(
0'
#17500000
b0 .
1"
b11 !
b11 ,
b11 /
b111 -
1$
#18000000
0$
#18500000
b111 .
b0 -
0"
b0 !
b0 ,
b0 /
1$
#19000000
0$
#19500000
b0 .
1"
b11 !
b11 ,
b11 /
b111 -
1$
#20000000
0$
#20500000
b111 .
b0 -
0"
b0 !
b0 ,
b0 /
1$
#21000000
0$
#21500000
b0 .
1"
b11 !
b11 ,
b11 /
b111 -
1$
#22000000
0$
#22500000
b111 .
b0 -
0"
b0 !
b0 ,
b0 /
1$
#23000000
0$
#23020000
b1 .
0(
1%
b10 )
b10 +
#23500000
b1000 .
b1 -
1$
#24000000
0$
#24500000
b0 .
b1000 -
b100 !
b100 ,
b100 /
1$
#25000000
0$
#25500000
b1 .
b0 !
b0 ,
b0 /
b0 -
1$
#26000000
0$
#26500000
b1000 .
b1 -
1$
#27000000
0$
#27500000
b0 .
b100 !
b100 ,
b100 /
b1000 -
1$
#28000000
0$
#28500000
b1 .
b0 -
b0 !
b0 ,
b0 /
1$
#29000000
0$
#29020000
b1 .
1&
0%
#29500000
b1001 .
b1 -
1$
#30000000
0$
#30500000
b0 .
b1001 -
b101 !
b101 ,
b101 /
1$
#31000000
0$
#31500000
b1 .
b0 !
b0 ,
b0 /
b0 -
1$
#32000000
0$
#32500000
b1001 .
b1 -
1$
#33000000
0$
#33500000
b0 .
b101 !
b101 ,
b101 /
b1001 -
1$
#34000000
0$
#34500000
b1 .
b0 -
b0 !
b0 ,
b0 /
1$
#35000000
0$
#35020000
b1 .
1'
0&
#35500000
b1010 .
b1 -
1$
#36000000
0$
#36500000
b0 .
b1010 -
b110 !
b110 ,
b110 /
1$
#37000000
0$
#37500000
b1 .
b0 !
b0 ,
b0 /
b0 -
1$
#38000000
0$
#38500000
b1010 .
b1 -
1$
#39000000
0$
#39500000
b0 .
b110 !
b110 ,
b110 /
b1010 -
1$
#40000000
0$
#40500000
b1 .
b0 -
b0 !
b0 ,
b0 /
1$
#41000000
0$
#41020000
b1 .
1(
0'
#41500000
b1011 .
b1 -
1$
#42000000
0$
#42500000
b0 .
b1011 -
1#
b111 !
b111 ,
b111 /
1$
#43000000
0$
#43500000
b1 .
0#
b0 !
b0 ,
b0 /
b0 -
1$
#44000000
0$
#44500000
b1011 .
b1 -
1$
#45000000
0$
#45500000
b0 .
1#
b111 !
b111 ,
b111 /
b1011 -
1$
#46000000
0$
#46030000
b0 .
0(
1%
b100 )
b100 +
#46500000
b1 .
b0 -
0#
b0 !
b0 ,
b0 /
1$
#47000000
0$
#47500000
b10 .
b1 -
1$
#48000000
0$
#48500000
b1100 .
b10 -
1$
#49000000
0$
#49500000
b0 .
b1000 !
b1000 ,
b1000 /
b1100 -
1$
#50000000
0$
#50500000
b1 .
b0 -
b0 !
b0 ,
b0 /
1$
#51000000
0$
#51500000
b10 .
b1 -
1$
#52000000
0$
#52500000
b1100 .
b10 -
1$
#53000000
0$
#53500000
b0 .
b1000 !
b1000 ,
b1000 /
b1100 -
1$
#54000000
0$
#54080000
b0 .
1&
0%
#54500000
b1 .
b0 -
b0 !
b0 ,
b0 /
1$
#55000000
0$
#55500000
b10 .
b1 -
1$
#56000000
0$
#56500000
b1101 .
b10 -
1$
#57000000
0$
#57500000
b0 .
b1001 !
b1001 ,
b1001 /
b1101 -
1$
#58000000
0$
#58130000
b0 .
1'
0&
#58500000
b1 .
b0 -
b0 !
b0 ,
b0 /
1$
#59000000
0$
#59500000
b10 .
b1 -
1$
#60000000
0$
#60500000
b1110 .
b10 -
1$
#61000000
0$
#61500000
b0 .
b1010 !
b1010 ,
b1010 /
b1110 -
1$
#62000000
0$
#62500000
b1 .
b0 -
b0 !
b0 ,
b0 /
1$
#63000000
0$
#63500000
b10 .
b1 -
1$
#64000000
0$
#64500000
b1110 .
b10 -
1$
#65000000
0$
#65500000
b0 .
b1010 !
b1010 ,
b1010 /
b1110 -
1$
#66000000
0$
#66180000
b0 .
1(
0'
#66500000
b1 .
b0 -
b0 !
b0 ,
b0 /
1$
#67000000
0$
#67500000
b10 .
b1 -
1$
#68000000
0$
#68500000
b1111 .
b10 -
1$
#69000000
0$
#69500000
b0 .
b1011 !
b1011 ,
b1011 /
b1111 -
1$
#70000000
0$
#70500000
b1 .
b0 -
b0 !
b0 ,
b0 /
1$
#71000000
0$
#71500000
b10 .
b1 -
1$
#72000000
0$
#72500000
b1111 .
b10 -
1$
#73000000
0$
#73500000
b0 .
b1011 !
b1011 ,
b1011 /
b1111 -
1$
#74000000
0$
#74280000
b0 .
0(
1%
b1000 )
b1000 +
#74500000
b1 .
b0 -
b0 !
b0 ,
b0 /
1$
#75000000
0$
#75500000
b10 .
b1 -
1$
#76000000
0$
#76500000
b11 .
b10 -
1$
#77000000
0$
#77500000
b10000 .
b11 -
1$
#78000000
0$
#78500000
b0 .
b10000 -
b1100 !
b1100 ,
b1100 /
1$
#79000000
0$
#79284900
b0 .
1&
0%
#79500000
b1 .
b0 !
b0 ,
b0 /
b0 -
1$
#80000000
0$
#80500000
b10 .
b1 -
1$
#81000000
0$
#81500000
b11 .
b10 -
1$
#82000000
0$
#82500000
b10001 .
b11 -
1$
#83000000
0$
#83500000
b0 .
b1101 !
b1101 ,
b1101 /
b10001 -
1$
#84000000
0$
#84289800
b0 .
1'
0&
#84500000
b1 .
b0 -
b0 !
b0 ,
b0 /
1$
#85000000
0$
#85500000
b10 .
b1 -
1$
#86000000
0$
#86500000
b11 .
b10 -
1$
#87000000
0$
#87500000
b10010 .
b11 -
1$
#88000000
0$
#88500000
b0 .
b10010 -
b1110 !
b1110 ,
b1110 /
1$
#89000000
0$
#89293800
b0 .
1(
0'
#89500000
b1 .
b0 !
b0 ,
b0 /
b0 -
1$
#90000000
0$
#90500000
b10 .
b1 -
1$
#91000000
0$
#91500000
b11 .
b10 -
1$
#92000000
0$
#92500000
b10011 .
b11 -
1$
#93000000
0$
#93500000
b0 .
b1111 !
b1111 ,
b1111 /
b10011 -
1$
