Tarea_3/src/build/control_tb.vcd
$date
	Wed Nov 20 15:06:17 2024
$end
$version
	Icarus Verilog
$end
$timescale
	1ps
$end
$scope module control_tb $end
$var wire 7 ! seg_tb [6:0] $end
$var wire 4 " fila_tb [3:0] $end
$var wire 4 # an_tb [3:0] $end
$var reg 1 $ clk_tb $end
$var reg 1 % col_0_tb $end
$var reg 1 & col_1_tb $end
$var reg 1 ' col_2_tb $end
$var reg 1 ( col_3_tb $end
$var reg 1 ) rst_tb $end
$scope module DUT $end
$var wire 1 $ clk $end
$var wire 1 % col_0 $end
$var wire 1 & col_1 $end
$var wire 1 ' col_2 $end
$var wire 1 ( col_3 $end
$var wire 3 * tecla_cont [2:0] $end
$var wire 16 + resultado [15:0] $end
$var wire 12 , num_result2 [11:0] $end
$var wire 12 - num_result1 [11:0] $end
$var wire 4 . fila [3:0] $end
$var wire 1 / done $end
$var wire 1 0 col3 $end
$var wire 1 1 col2 $end
$var wire 1 2 col1 $end
$var wire 1 3 col0 $end
$var wire 1 4 clk_div $end
$var wire 16 5 bcd_out [15:0] $end
$var wire 7 6 Seg [6:0] $end
$var wire 4 7 An [3:0] $end
$var reg 1 8 almac $end
$var reg 4 9 an [3:0] $end
$var reg 16 : binary_in [15:0] $end
$var reg 3 ; estado_act [2:0] $end
$var reg 3 < estado_sig [2:0] $end
$var reg 8 = num1 [7:0] $end
$var reg 4 > num1_dec1 [3:0] $end
$var reg 4 ? num1_dec2 [3:0] $end
$var reg 8 @ num2 [7:0] $end
$var reg 4 A num2_dec1 [3:0] $end
$var reg 4 B num2_dec2 [3:0] $end
$var reg 16 C result [15:0] $end
$var reg 1 D rst $end
$var reg 7 E seg [6:0] $end
$var reg 1 F start $end
$var reg 1 G sum $end
$var reg 4 H tecla [3:0] $end
$var reg 4 I tecla_opera [3:0] $end
$var reg 4 J tecla_pre [3:0] $end
$scope module inst_alma $end
$var wire 1 8 almac $end
$var wire 1 $ clk $end
$var wire 4 K num1_dec1 [3:0] $end
$var wire 4 L num1_dec2 [3:0] $end
$var wire 4 M num2_dec1 [3:0] $end
$var wire 4 N num2_dec2 [3:0] $end
$var wire 1 D rst $end
$var reg 12 O num_result1 [11:0] $end
$var reg 12 P num_result2 [11:0] $end
$upscope $end
$scope module inst_codificador $end
$var wire 16 Q binary_in [15:0] $end
$var wire 1 $ clk $end
$var reg 16 R bcd_out [15:0] $end
$var reg 32 S shift_reg [31:0] $end
$var integer 32 T state [31:0] $end
$scope begin $ivl_for_loop1 $end
$var integer 32 U j [31:0] $end
$upscope $end
$upscope $end
$scope module inst_displ $end
$var wire 7 V Seg [6:0] $end
$var wire 1 $ clk $end
$var wire 16 W data [15:0] $end
$var wire 16 X result [15:0] $end
$var reg 4 Y anodes [3:0] $end
$var reg 4 Z dig [3:0] $end
$var reg 7 [ number [6:0] $end
$var reg 1 \ slow_clock $end
$var reg 4 ] state [3:0] $end
$var integer 32 ^ count [31:0] $end
$upscope $end
$scope module inst_div $end
$var wire 1 $ clk $end
$var parameter 32 _ fre $end
$var parameter 32 ` frecuencia $end
$var parameter 64 a max_cuenta $end
$var reg 1 4 clk_div $end
$var reg 5 b cuenta [4:0] $end
$upscope $end
$scope module inst_mult $end
$var wire 8 c A [7:0] $end
$var wire 8 d B [7:0] $end
$var wire 1 $ clk $end
$var wire 1 F start $end
$var reg 16 e acumulador [15:0] $end
$var reg 1 f busy $end
$var reg 8 g contador [7:0] $end
$var reg 1 / done $end
$var reg 8 h multiplicador [7:0] $end
$var reg 8 i multiplicando [7:0] $end
$var reg 16 j resultado [15:0] $end
$upscope $end
$scope module inst_tecla_cont $end
$var wire 1 $ clk $end
$var wire 1 D rst $end
$var wire 4 k tecla_pre [3:0] $end
$var reg 4 l tecla_ant [3:0] $end
$var reg 3 m tecla_cont [2:0] $end
$upscope $end
$scope module insta_cont_anillo1 $end
$var wire 1 4 clk $end
$var wire 1 D rst $end
$var parameter 32 n WIDTH $end
$var reg 4 o fila [3:0] $end
$scope begin $ivl_for_loop0 $end
$var integer 32 p i [31:0] $end
$upscope $end
$upscope $end
$scope module insta_reb_col0 $end
$var wire 1 % boton $end
$var wire 1 3 boton_sal $end
$var wire 1 $ clk $end
$var wire 1 q q2_com $end
$var wire 1 r q2 $end
$var wire 1 s q1 $end
$var wire 1 t q0 $end
$var wire 1 u clk_hab $end
$scope module clk_ha $end
$var wire 1 $ clk $end
$var parameter 32 v fre $end
$var parameter 32 w frecuencia $end
$var parameter 64 x max_cuenta $end
$var reg 1 u clk_div $end
$var reg 5 y cuenta [4:0] $end
$upscope $end
$scope module ff1 $end
$var wire 1 % D $end
$var wire 1 $ clk $end
$var wire 1 u clk_hab $end
$var reg 1 t Q $end
$upscope $end
$scope module ff2 $end
$var wire 1 t D $end
$var wire 1 $ clk $end
$var wire 1 u clk_hab $end
$var reg 1 s Q $end
$upscope $end
$scope module ff3 $end
$var wire 1 s D $end
$var wire 1 $ clk $end
$var wire 1 u clk_hab $end
$var reg 1 r Q $end
$upscope $end
$upscope $end
$scope module insta_reb_col1 $end
$var wire 1 & boton $end
$var wire 1 2 boton_sal $end
$var wire 1 $ clk $end
$var wire 1 z q2_com $end
$var wire 1 { q2 $end
$var wire 1 | q1 $end
$var wire 1 } q0 $end
$var wire 1 ~ clk_hab $end
$scope module clk_ha $end
$var wire 1 $ clk $end
$var parameter 32 !" fre $end
$var parameter 32 "" frecuencia $end
$var parameter 64 #" max_cuenta $end
$var reg 1 ~ clk_div $end
$var reg 5 $" cuenta [4:0] $end
$upscope $end
$scope module ff1 $end
$var wire 1 & D $end
$var wire 1 $ clk $end
$var wire 1 ~ clk_hab $end
$var reg 1 } Q $end
$upscope $end
$scope module ff2 $end
$var wire 1 } D $end
$var wire 1 $ clk $end
$var wire 1 ~ clk_hab $end
$var reg 1 | Q $end
$upscope $end
$scope module ff3 $end
$var wire 1 | D $end
$var wire 1 $ clk $end
$var wire 1 ~ clk_hab $end
$var reg 1 { Q $end
$upscope $end
$upscope $end
$scope module insta_reb_col2 $end
$var wire 1 ' boton $end
$var wire 1 1 boton_sal $end
$var wire 1 $ clk $end
$var wire 1 %" q2_com $end
$var wire 1 &" q2 $end
$var wire 1 '" q1 $end
$var wire 1 (" q0 $end
$var wire 1 )" clk_hab $end
$scope module clk_ha $end
$var wire 1 $ clk $end
$var parameter 32 *" fre $end
$var parameter 32 +" frecuencia $end
$var parameter 64 ," max_cuenta $end
$var reg 1 )" clk_div $end
$var reg 5 -" cuenta [4:0] $end
$upscope $end
$scope module ff1 $end
$var wire 1 ' D $end
$var wire 1 $ clk $end
$var wire 1 )" clk_hab $end
$var reg 1 (" Q $end
$upscope $end
$scope module ff2 $end
$var wire 1 (" D $end
$var wire 1 $ clk $end
$var wire 1 )" clk_hab $end
$var reg 1 '" Q $end
$upscope $end
$scope module ff3 $end
$var wire 1 '" D $end
$var wire 1 $ clk $end
$var wire 1 )" clk_hab $end
$var reg 1 &" Q $end
$upscope $end
$upscope $end
$scope module insta_reb_col3 $end
$var wire 1 ( boton $end
$var wire 1 0 boton_sal $end
$var wire 1 $ clk $end
$var wire 1 ." q2_com $end
$var wire 1 /" q2 $end
$var wire 1 0" q1 $end
$var wire 1 1" q0 $end
$var wire 1 2" clk_hab $end
$scope module clk_ha $end
$var wire 1 $ clk $end
$var parameter 32 3" fre $end
$var parameter 32 4" frecuencia $end
$var parameter 64 5" max_cuenta $end
$var reg 1 2" clk_div $end
$var reg 5 6" cuenta [4:0] $end
$upscope $end
$scope module ff1 $end
$var wire 1 ( D $end
$var wire 1 $ clk $end
$var wire 1 2" clk_hab $end
$var reg 1 1" Q $end
$upscope $end
$scope module ff2 $end
$var wire 1 1" D $end
$var wire 1 $ clk $end
$var wire 1 2" clk_hab $end
$var reg 1 0" Q $end
$upscope $end
$scope module ff3 $end
$var wire 1 0" D $end
$var wire 1 $ clk $end
$var wire 1 2" clk_hab $end
$var reg 1 /" Q $end
$upscope $end
$upscope $end
$upscope $end
$upscope $end
$enddefinitions $end
$comment Show the parameter values. $end
$dumpall
b1101 5"
b1100110111111110011000000 4"
b11110100001001000000 3"
b1101 ,"
b1100110111111110011000000 +"
b11110100001001000000 *"
b1101 #"
b1100110111111110011000000 ""
b11110100001001000000 !"
b1101 x
b1100110111111110011000000 w
b11110100001001000000 v
b100 n
b1101 a
b1100110111111110011000000 `
b11110100001001000000 _
$end
#0
$dumpvars
b0 6"
02"
01"
00"
0/"
1."
b0 -"
0)"
0("
0'"
0&"
1%"
b0 $"
0~
0}
0|
0{
1z
b0 y
0u
0t
0s
0r
1q
b0 p
bx o
bx m
bx l
bx k
bx j
bx i
bx h
bx g
xf
bx e
bx d
bx c
b0 b
b0 ^
b0 ]
0\
bx [
bx Z
bx Y
bx X
bx W
bx V
b0 U
b0 T
bx S
bx R
bx Q
bx P
bx O
bx N
bx M
bx L
bx K
bx J
bx I
bx H
xG
xF
bx E
xD
bx C
bx B
bx A
bx @
bx ?
bx >
bx =
bx <
bx ;
bx :
bx 9
x8
bx 7
bx 6
bx 5
04
03
02
01
00
x/
bx .
bx -
bx ,
bx +
bx *
1)
0(
0'
0&
0%
0$
bx #
bx "
bx !
$end
#18500
b0 ;
b1 b
b1 y
b1 $"
b1 -"
b1 6"
b1 ^
b1 T
b0xxxxxxxxxxxxxxxx S
b0 <
1$
#20000
0)
#37000
0$
#55500
b10 ^
b10 6"
b10 -"
b10 $"
b10 y
b10 b
b10 T
b0xxxxxxxxxxxxxxxx0 S
b100 U
1$
#74000
0$
#92500
b11 b
b11 y
b11 $"
b11 -"
b11 6"
b11 ^
b11 T
b0xxxxxxxxxxxxxxxx00 S
b100 U
1$
#111000
0$
#129500
b0 6
b0 V
b0 [
b1 ]
b1110 7
b1110 Y
1\
b0 ^
b100 6"
b100 -"
b100 $"
b100 y
b100 b
b100 T
b0xxxxxxxxxxxxxxxx000 S
b100 U
1$
#148000
0$
#166500
b101 b
b101 y
b101 $"
b101 -"
b101 6"
b1 ^
b101 T
b0xxxxxxxxxxxxxxxx0000 S
b100 U
1$
#185000
0$
#203500
b10 ^
b110 6"
b110 -"
b110 $"
b110 y
b110 b
b110 T
b0xxxxxxxxxxxxxxxx00000 S
b100 U
1$
#222000
0$
#240500
b111 b
b111 y
b111 $"
b111 -"
b111 6"
b11 ^
b111 T
b0xxxxxxxxxxxxxxxx000000 S
b100 U
1$
#259000
0$
#277500
0\
b0 ^
b1000 6"
b1000 -"
b1000 $"
b1000 y
b1000 b
b1000 T
b0xxxxxxxxxxxxxxxx0000000 S
b100 U
1$
#296000
0$
#314500
b1001 b
b1001 y
b1001 $"
b1001 -"
b1001 6"
b1 ^
b1001 T
b0xxxxxxxxxxxxxxxx00000000 S
b100 U
1$
#333000
0$
#351500
b10 ^
b1010 6"
b1010 -"
b1010 $"
b1010 y
b1010 b
b1010 T
b0xxxxxxxxxxxxxxxx000000000 S
b100 U
1$
#370000
0$
#388500
b1011 b
b1011 y
b1011 $"
b1011 -"
b1011 6"
b11 ^
b1011 T
b0xxxxxxxxxxxxxxxx0000000000 S
b100 U
1$
#407000
0$
#425500
b10 ]
b1101 7
b1101 Y
1\
b0 ^
b1100 6"
b1100 -"
b1100 $"
b1100 y
b1100 b
b1100 T
b0xxxxxxxxxxxxxxxx00000000000 S
b100 U
1$
#444000
0$
#462500
b1101 b
b1101 y
b1101 $"
b1101 -"
b1101 6"
b1 ^
b1101 T
b0xxxxxxxxxxxxxxxx000000000000 S
b100 U
1$
#481000
0$
#499500
b11 p
b10 ^
b0 6"
12"
b0 -"
1)"
b0 $"
1~
b0 y
1u
b0 b
14
b1110 T
b0xxxxxxxxxxxxxxxx0000000000000 S
b100 U
1$
#518000
0$
#536500
b1 b
b1 y
b1 $"
b1 -"
b1 6"
b11 ^
b1111 T
b0xxxxxxxxxxxxxxxx00000000000000 S
b100 U
1$
#555000
0$
#573500
0\
b0 ^
b10 6"
b10 -"
b10 $"
b10 y
b10 b
b10000 T
b0xxxxxxxxxxxxxxxx000000000000000 S
b100 U
1$
#592000
0$
#610500
b11 b
b11 y
b11 $"
b11 -"
b11 6"
b1 ^
b10001 T
bx0000000000000000 S
b100 U
1$
#629000
0$
#647500
b10 ^
b100 6"
b100 -"
b100 $"
b100 y
b100 b
b0 T
1$
#666000
0$
#684500
b101 b
b101 y
b101 $"
b101 -"
b101 6"
b11 ^
b1 T
b0xxxxxxxxxxxxxxxx S
1$
#703000
0$
#721500
b11 ]
b1011 7
b1011 Y
1\
b0 ^
b110 6"
b110 -"
b110 $"
b110 y
b110 b
b10 T
b0xxxxxxxxxxxxxxxx0 S
b100 U
1$
#740000
0$
#758500
b111 b
b111 y
b111 $"
b111 -"
b111 6"
b1 ^
b11 T
b0xxxxxxxxxxxxxxxx00 S
b100 U
1$
#777000
0$
#795500
b10 ^
b1000 6"
b1000 -"
b1000 $"
b1000 y
b1000 b
b100 T
b0xxxxxxxxxxxxxxxx000 S
b100 U
1$
#814000
0$
#832500
b1001 b
b1001 y
b1001 $"
b1001 -"
b1001 6"
b11 ^
b101 T
b0xxxxxxxxxxxxxxxx0000 S
b100 U
1$
#851000
0$
#869500
0\
b0 ^
b1010 6"
b1010 -"
b1010 $"
b1010 y
b1010 b
b110 T
b0xxxxxxxxxxxxxxxx00000 S
b100 U
1$
#888000
0$
#906500
b1011 b
b1011 y
b1011 $"
b1011 -"
b1011 6"
b1 ^
b111 T
b0xxxxxxxxxxxxxxxx000000 S
b100 U
1$
#925000
0$
#943500
b10 ^
b1100 6"
b1100 -"
b1100 $"
b1100 y
b1100 b
b1000 T
b0xxxxxxxxxxxxxxxx0000000 S
b100 U
1$
#962000
0$
#980500
b1101 b
b1101 y
b1101 $"
b1101 -"
b1101 6"
b11 ^
b1001 T
b0xxxxxxxxxxxxxxxx00000000 S
b100 U
1$
#999000
0$
#1017500
b0 ]
b111 7
b111 Y
1\
b0 ^
b0 6"
02"
b0 -"
0)"
b0 $"
0~
b0 y
0u
b0 b
04
b1010 T
b0xxxxxxxxxxxxxxxx000000000 S
b100 U
1$
#1036000
0$
#1054500
b1 b
b1 y
b1 $"
b1 -"
b1 6"
b1 ^
b1011 T
b0xxxxxxxxxxxxxxxx0000000000 S
b100 U
1$
#1073000
0$
#1091500
b10 ^
b10 6"
b10 -"
b10 $"
b10 y
b10 b
b1100 T
b0xxxxxxxxxxxxxxxx00000000000 S
b100 U
1$
#1110000
0$
#1128500
b11 b
b11 y
b11 $"
b11 -"
b11 6"
b11 ^
b1101 T
b0xxxxxxxxxxxxxxxx000000000000 S
b100 U
1$
#1147000
0$
#1165500
0\
b0 ^
b100 6"
b100 -"
b100 $"
b100 y
b100 b
b1110 T
b0xxxxxxxxxxxxxxxx0000000000000 S
b100 U
1$
#1184000
0$
#1202500
b101 b
b101 y
b101 $"
b101 -"
b101 6"
b1 ^
b1111 T
b0xxxxxxxxxxxxxxxx00000000000000 S
b100 U
1$
#1221000
0$
#1239500
b10 ^
b110 6"
b110 -"
b110 $"
b110 y
b110 b
b10000 T
b0xxxxxxxxxxxxxxxx000000000000000 S
b100 U
1$
#1258000
0$
#1276500
b111 b
b111 y
b111 $"
b111 -"
b111 6"
b11 ^
b10001 T
bx0000000000000000 S
b100 U
1$
#1295000
0$
#1313500
b1 ]
b1110 7
b1110 Y
1\
b0 ^
b1000 6"
b1000 -"
b1000 $"
b1000 y
b1000 b
b0 T
1$
#1332000
0$
#1350500
b1001 b
b1001 y
b1001 $"
b1001 -"
b1001 6"
b1 ^
b1 T
b0xxxxxxxxxxxxxxxx S
1$
#1369000
0$
#1387500
b10 ^
b1010 6"
b1010 -"
b1010 $"
b1010 y
b1010 b
b10 T
b0xxxxxxxxxxxxxxxx0 S
b100 U
1$
#1406000
0$
#1424500
b1011 b
b1011 y
b1011 $"
b1011 -"
b1011 6"
b11 ^
b11 T
b0xxxxxxxxxxxxxxxx00 S
b100 U
1$
#1443000
0$
#1461500
0\
b0 ^
b1100 6"
b1100 -"
b1100 $"
b1100 y
b1100 b
b100 T
b0xxxxxxxxxxxxxxxx000 S
b100 U
1$
#1480000
0$
#1498500
b1101 b
b1101 y
b1101 $"
b1101 -"
b1101 6"
b1 ^
b101 T
b0xxxxxxxxxxxxxxxx0000 S
b100 U
1$
#1517000
0$
#1535500
b11 p
b10 ^
b0 6"
12"
b0 -"
1)"
b0 $"
1~
b0 y
1u
b0 b
14
b110 T
b0xxxxxxxxxxxxxxxx00000 S
b100 U
1$
#1554000
0$
#1572500
b1 b
b1 y
b1 $"
b1 -"
b1 6"
b11 ^
b111 T
b0xxxxxxxxxxxxxxxx000000 S
b100 U
1$
#1591000
0$
#1609500
b10 ]
b1101 7
b1101 Y
1\
b0 ^
b10 6"
b10 -"
b10 $"
b10 y
b10 b
b1000 T
b0xxxxxxxxxxxxxxxx0000000 S
b100 U
1$
#1628000
0$
#1646500
b11 b
b11 y
b11 $"
b11 -"
b11 6"
b1 ^
b1001 T
b0xxxxxxxxxxxxxxxx00000000 S
b100 U
1$
#1665000
0$
#1683500
b10 ^
b100 6"
b100 -"
b100 $"
b100 y
b100 b
b1010 T
b0xxxxxxxxxxxxxxxx000000000 S
b100 U
1$
#1702000
0$
#1720500
b101 b
b101 y
b101 $"
b101 -"
b101 6"
b11 ^
b1011 T
b0xxxxxxxxxxxxxxxx0000000000 S
b100 U
1$
#1739000
0$
#1757500
0\
b0 ^
b110 6"
b110 -"
b110 $"
b110 y
b110 b
b1100 T
b0xxxxxxxxxxxxxxxx00000000000 S
b100 U
1$
#1776000
0$
#1794500
b111 b
b111 y
b111 $"
b111 -"
b111 6"
b1 ^
b1101 T
b0xxxxxxxxxxxxxxxx000000000000 S
b100 U
1$
#1813000
0$
#1831500
b10 ^
b1000 6"
b1000 -"
b1000 $"
b1000 y
b1000 b
b1110 T
b0xxxxxxxxxxxxxxxx0000000000000 S
b100 U
1$
#1850000
0$
#1868500
b1001 b
b1001 y
b1001 $"
b1001 -"
b1001 6"
b11 ^
b1111 T
b0xxxxxxxxxxxxxxxx00000000000000 S
b100 U
1$
#1887000
0$
#1905500
b11 ]
b1011 7
b1011 Y
1\
b0 ^
b1010 6"
b1010 -"
b1010 $"
b1010 y
b1010 b
b10000 T
b0xxxxxxxxxxxxxxxx000000000000000 S
b100 U
1$
#1924000
0$
#1942500
b1011 b
b1011 y
b1011 $"
b1011 -"
b1011 6"
b1 ^
b10001 T
bx0000000000000000 S
b100 U
1$
#1961000
0$
#1979500
b10 ^
b1100 6"
b1100 -"
b1100 $"
b1100 y
b1100 b
b0 T
1$
#1998000
0$
#2016500
b1101 b
b1101 y
b1101 $"
b1101 -"
b1101 6"
b11 ^
b1 T
b0xxxxxxxxxxxxxxxx S
1$
#2035000
0$
#2053500
0\
b0 ^
b0 6"
02"
b0 -"
0)"
b0 $"
0~
b0 y
0u
b0 b
04
b10 T
b0xxxxxxxxxxxxxxxx0 S
b100 U
1$
#2072000
0$
#2090500
b1 b
b1 y
b1 $"
b1 -"
b1 6"
b1 ^
b11 T
b0xxxxxxxxxxxxxxxx00 S
b100 U
1$
#2109000
0$
#2127500
b10 ^
b10 6"
b10 -"
b10 $"
b10 y
b10 b
b100 T
b0xxxxxxxxxxxxxxxx000 S
b100 U
1$
#2146000
0$
#2164500
b11 b
b11 y
b11 $"
b11 -"
b11 6"
b11 ^
b101 T
b0xxxxxxxxxxxxxxxx0000 S
b100 U
1$
#2183000
0$
#2201500
b0 ]
b111 7
b111 Y
1\
b0 ^
b100 6"
b100 -"
b100 $"
b100 y
b100 b
b110 T
b0xxxxxxxxxxxxxxxx00000 S
b100 U
1$
#2220000
0$
#2238500
b101 b
b101 y
b101 $"
b101 -"
b101 6"
b1 ^
b111 T
b0xxxxxxxxxxxxxxxx000000 S
b100 U
1$
#2257000
0$
#2275500
b10 ^
b110 6"
b110 -"
b110 $"
b110 y
b110 b
b1000 T
b0xxxxxxxxxxxxxxxx0000000 S
b100 U
1$
#2294000
0$
#2312500
b111 b
b111 y
b111 $"
b111 -"
b111 6"
b11 ^
b1001 T
b0xxxxxxxxxxxxxxxx00000000 S
b100 U
1$
#2331000
0$
#2349500
0\
b0 ^
b1000 6"
b1000 -"
b1000 $"
b1000 y
b1000 b
b1010 T
b0xxxxxxxxxxxxxxxx000000000 S
b100 U
1$
#2368000
0$
#2386500
b1001 b
b1001 y
b1001 $"
b1001 -"
b1001 6"
b1 ^
b1011 T
b0xxxxxxxxxxxxxxxx0000000000 S
b100 U
1$
#2405000
0$
#2423500
b10 ^
b1010 6"
b1010 -"
b1010 $"
b1010 y
b1010 b
b1100 T
b0xxxxxxxxxxxxxxxx00000000000 S
b100 U
1$
#2442000
0$
#2460500
b1011 b
b1011 y
b1011 $"
b1011 -"
b1011 6"
b11 ^
b1101 T
b0xxxxxxxxxxxxxxxx000000000000 S
b100 U
1$
#2479000
0$
#2497500
b1 ]
b1110 7
b1110 Y
1\
b0 ^
b1100 6"
b1100 -"
b1100 $"
b1100 y
b1100 b
b1110 T
b0xxxxxxxxxxxxxxxx0000000000000 S
b100 U
1$
#2516000
0$
#2534500
b1101 b
b1101 y
b1101 $"
b1101 -"
b1101 6"
b1 ^
b1111 T
b0xxxxxxxxxxxxxxxx00000000000000 S
b100 U
1$
#2553000
0$
#2571500
b11 p
b10 ^
b0 6"
12"
b0 -"
1)"
b0 $"
1~
b0 y
1u
b0 b
14
b10000 T
b0xxxxxxxxxxxxxxxx000000000000000 S
b100 U
1$
#2590000
0$
#2608500
b1 b
b1 y
b1 $"
b1 -"
b1 6"
b11 ^
b10001 T
bx0000000000000000 S
b100 U
1$
#2627000
0$
#2645500
0\
b0 ^
b10 6"
b10 -"
b10 $"
b10 y
b10 b
b0 T
1$
#2664000
0$
#2682500
b11 b
b11 y
b11 $"
b11 -"
b11 6"
b1 ^
b1 T
b0xxxxxxxxxxxxxxxx S
1$
#2701000
0$
#2719500
b10 ^
b100 6"
b100 -"
b100 $"
b100 y
b100 b
b10 T
b0xxxxxxxxxxxxxxxx0 S
b100 U
1$
#2738000
0$
#2756500
b101 b
b101 y
b101 $"
b101 -"
b101 6"
b11 ^
b11 T
b0xxxxxxxxxxxxxxxx00 S
b100 U
1$
#2775000
0$
#2793500
b10 ]
b1101 7
b1101 Y
1\
b0 ^
b110 6"
b110 -"
b110 $"
b110 y
b110 b
b100 T
b0xxxxxxxxxxxxxxxx000 S
b100 U
1$
#2812000
0$
#2830500
b111 b
b111 y
b111 $"
b111 -"
b111 6"
b1 ^
b101 T
b0xxxxxxxxxxxxxxxx0000 S
b100 U
1$
#2849000
0$
#2867500
b10 ^
b1000 6"
b1000 -"
b1000 $"
b1000 y
b1000 b
b110 T
b0xxxxxxxxxxxxxxxx00000 S
b100 U
1$
#2886000
0$
#2904500
b1001 b
b1001 y
b1001 $"
b1001 -"
b1001 6"
b11 ^
b111 T
b0xxxxxxxxxxxxxxxx000000 S
b100 U
1$
#2923000
0$
#2941500
0\
b0 ^
b1010 6"
b1010 -"
b1010 $"
b1010 y
b1010 b
b1000 T
b0xxxxxxxxxxxxxxxx0000000 S
b100 U
1$
#2960000
0$
#2978500
b1011 b
b1011 y
b1011 $"
b1011 -"
b1011 6"
b1 ^
b1001 T
b0xxxxxxxxxxxxxxxx00000000 S
b100 U
1$
#2997000
0$
#3015500
b10 ^
b1100 6"
b1100 -"
b1100 $"
b1100 y
b1100 b
b1010 T
b0xxxxxxxxxxxxxxxx000000000 S
b100 U
1$
#3034000
0$
#3052500
b1101 b
b1101 y
b1101 $"
b1101 -"
b1101 6"
b11 ^
b1011 T
b0xxxxxxxxxxxxxxxx0000000000 S
b100 U
1$
#3071000
0$
#3089500
b11 ]
b1011 7
b1011 Y
1\
b0 ^
b0 6"
02"
b0 -"
0)"
b0 $"
0~
b0 y
0u
b0 b
04
b1100 T
b0xxxxxxxxxxxxxxxx00000000000 S
b100 U
1$
#3108000
0$
#3126500
b1 b
b1 y
b1 $"
b1 -"
b1 6"
b1 ^
b1101 T
b0xxxxxxxxxxxxxxxx000000000000 S
b100 U
1$
#3145000
0$
#3163500
b10 ^
b10 6"
b10 -"
b10 $"
b10 y
b10 b
b1110 T
b0xxxxxxxxxxxxxxxx0000000000000 S
b100 U
1$
#3182000
0$
#3200500
b11 b
b11 y
b11 $"
b11 -"
b11 6"
b11 ^
b1111 T
b0xxxxxxxxxxxxxxxx00000000000000 S
b100 U
1$
#3219000
0$
#3237500
0\
b0 ^
b100 6"
b100 -"
b100 $"
b100 y
b100 b
b10000 T
b0xxxxxxxxxxxxxxxx000000000000000 S
b100 U
1$
#3256000
0$
#3274500
b101 b
b101 y
b101 $"
b101 -"
b101 6"
b1 ^
b10001 T
bx0000000000000000 S
b100 U
1$
#3293000
0$
#3311500
b10 ^
b110 6"
b110 -"
b110 $"
b110 y
b110 b
b0 T
1$
#3330000
0$
#3348500
b111 b
b111 y
b111 $"
b111 -"
b111 6"
b11 ^
b1 T
b0xxxxxxxxxxxxxxxx S
1$
#3367000
0$
#3385500
b0 ]
b111 7
b111 Y
1\
b0 ^
b1000 6"
b1000 -"
b1000 $"
b1000 y
b1000 b
b10 T
b0xxxxxxxxxxxxxxxx0 S
b100 U
1$
#3404000
0$
#3422500
b1001 b
b1001 y
b1001 $"
b1001 -"
b1001 6"
b1 ^
b11 T
b0xxxxxxxxxxxxxxxx00 S
b100 U
1$
#3441000
0$
#3459500
b10 ^
b1010 6"
b1010 -"
b1010 $"
b1010 y
b1010 b
b100 T
b0xxxxxxxxxxxxxxxx000 S
b100 U
1$
#3478000
0$
#3496500
b1011 b
b1011 y
b1011 $"
b1011 -"
b1011 6"
b11 ^
b101 T
b0xxxxxxxxxxxxxxxx0000 S
b100 U
1$
#3515000
0$
#3533500
0\
b0 ^
b1100 6"
b1100 -"
b1100 $"
b1100 y
b1100 b
b110 T
b0xxxxxxxxxxxxxxxx00000 S
b100 U
1$
#3552000
0$
#3570500
b1101 b
b1101 y
b1101 $"
b1101 -"
b1101 6"
b1 ^
b111 T
b0xxxxxxxxxxxxxxxx000000 S
b100 U
1$
#3589000
0$
#3607500
b11 p
b10 ^
b0 6"
12"
b0 -"
1)"
b0 $"
1~
b0 y
1u
b0 b
14
b1000 T
b0xxxxxxxxxxxxxxxx0000000 S
b100 U
1$
#3626000
0$
#3644500
b1 b
b1 y
b1 $"
b1 -"
b1 6"
b11 ^
b1001 T
b0xxxxxxxxxxxxxxxx00000000 S
b100 U
1$
#3663000
0$
#3681500
b1 ]
b1110 7
b1110 Y
1\
b0 ^
b10 6"
b10 -"
b10 $"
b10 y
b10 b
b1010 T
b0xxxxxxxxxxxxxxxx000000000 S
b100 U
1$
#3700000
0$
#3718500
b11 b
b11 y
b11 $"
b11 -"
b11 6"
b1 ^
b1011 T
b0xxxxxxxxxxxxxxxx0000000000 S
b100 U
1$
#3737000
0$
#3755500
b10 ^
b100 6"
b100 -"
b100 $"
b100 y
b100 b
b1100 T
b0xxxxxxxxxxxxxxxx00000000000 S
b100 U
1$
#3774000
0$
#3792500
b101 b
b101 y
b101 $"
b101 -"
b101 6"
b11 ^
b1101 T
b0xxxxxxxxxxxxxxxx000000000000 S
b100 U
1$
#3811000
0$
#3829500
0\
b0 ^
b110 6"
b110 -"
b110 $"
b110 y
b110 b
b1110 T
b0xxxxxxxxxxxxxxxx0000000000000 S
b100 U
1$
#3848000
0$
#3866500
b111 b
b111 y
b111 $"
b111 -"
b111 6"
b1 ^
b1111 T
b0xxxxxxxxxxxxxxxx00000000000000 S
b100 U
1$
#3885000
0$
#3903500
b10 ^
b1000 6"
b1000 -"
b1000 $"
b1000 y
b1000 b
b10000 T
b0xxxxxxxxxxxxxxxx000000000000000 S
b100 U
1$
#3922000
0$
#3940500
b1001 b
b1001 y
b1001 $"
b1001 -"
b1001 6"
b11 ^
b10001 T
bx0000000000000000 S
b100 U
1$
#3959000
0$
#3977500
b10 ]
b1101 7
b1101 Y
1\
b0 ^
b1010 6"
b1010 -"
b1010 $"
b1010 y
b1010 b
b0 T
1$
#3996000
0$
#4014500
b1011 b
b1011 y
b1011 $"
b1011 -"
b1011 6"
b1 ^
b1 T
b0xxxxxxxxxxxxxxxx S
1$
#4033000
0$
#4051500
b10 ^
b1100 6"
b1100 -"
b1100 $"
b1100 y
b1100 b
b10 T
b0xxxxxxxxxxxxxxxx0 S
b100 U
1$
#4070000
0$
#4088500
b1101 b
b1101 y
b1101 $"
b1101 -"
b1101 6"
b11 ^
b11 T
b0xxxxxxxxxxxxxxxx00 S
b100 U
1$
#4107000
0$
#4125500
0\
b0 ^
b0 6"
02"
b0 -"
0)"
b0 $"
0~
b0 y
0u
b0 b
04
b100 T
b0xxxxxxxxxxxxxxxx000 S
b100 U
1$
#4144000
0$
#4162500
b1 b
b1 y
b1 $"
b1 -"
b1 6"
b1 ^
b101 T
b0xxxxxxxxxxxxxxxx0000 S
b100 U
1$
#4181000
0$
#4199500
b10 ^
b10 6"
b10 -"
b10 $"
b10 y
b10 b
b110 T
b0xxxxxxxxxxxxxxxx00000 S
b100 U
1$
#4218000
0$
#4236500
b11 b
b11 y
b11 $"
b11 -"
b11 6"
b11 ^
b111 T
b0xxxxxxxxxxxxxxxx000000 S
b100 U
1$
#4255000
0$
#4273500
b11 ]
b1011 7
b1011 Y
1\
b0 ^
b100 6"
b100 -"
b100 $"
b100 y
b100 b
b1000 T
b0xxxxxxxxxxxxxxxx0000000 S
b100 U
1$
#4292000
0$
#4310500
b101 b
b101 y
b101 $"
b101 -"
b101 6"
b1 ^
b1001 T
b0xxxxxxxxxxxxxxxx00000000 S
b100 U
1$
#4329000
0$
