Tarea_3/src/build/module_display_tb.vcd
$date
	Wed Nov 13 20:37:25 2024
$end
$version
	Icarus Verilog
$end
$timescale
	1ps
$end
$scope module display_tb $end
$var wire 1 ! g $end
$var wire 1 " f $end
$var wire 1 # e $end
$var wire 1 $ d $end
$var wire 1 % c $end
$var wire 1 & b $end
$var wire 1 ' a $end
$var wire 4 ( Transis [3:0] $end
$var reg 1 ) clk $end
$var reg 14 * num [13:0] $end
$var reg 4 + num1 [3:0] $end
$var reg 4 , num2 [3:0] $end
$var reg 1 - rst $end
$scope module dut $end
$var wire 1 ) clk $end
$var wire 14 . num [13:0] $end
$var wire 4 / num1 [3:0] $end
$var wire 4 0 num2 [3:0] $end
$var wire 1 - rst $end
$var wire 4 1 unim [3:0] $end
$var wire 4 2 millm [3:0] $end
$var wire 1 3 ggggggg $end
$var wire 1 4 gggggg $end
$var wire 1 5 ggggg $end
$var wire 1 6 gggg $end
$var wire 1 7 ggg $end
$var wire 1 8 gg $end
$var wire 1 9 fffffff $end
$var wire 1 : ffffff $end
$var wire 1 ; fffff $end
$var wire 1 < ffff $end
$var wire 1 = fff $end
$var wire 1 > ff $end
$var wire 1 ? eeeeeee $end
$var wire 1 @ eeeeee $end
$var wire 1 A eeeee $end
$var wire 1 B eeee $end
$var wire 1 C eee $end
$var wire 1 D ee $end
$var wire 4 E decm [3:0] $end
$var wire 1 F ddddddd $end
$var wire 1 G dddddd $end
$var wire 1 H ddddd $end
$var wire 1 I dddd $end
$var wire 1 J ddd $end
$var wire 1 K dd $end
$var wire 4 L cenm [3:0] $end
$var wire 1 M ccccccc $end
$var wire 1 N cccccc $end
$var wire 1 O ccccc $end
$var wire 1 P cccc $end
$var wire 1 Q ccc $end
$var wire 1 R cc $end
$var wire 1 S bbbbbbb $end
$var wire 1 T bbbbbb $end
$var wire 1 U bbbbb $end
$var wire 1 V bbbb $end
$var wire 1 W bbb $end
$var wire 1 X bb $end
$var wire 1 Y aaaaaaa $end
$var wire 1 Z aaaaaa $end
$var wire 1 [ aaaaa $end
$var wire 1 \ aaaa $end
$var wire 1 ] aaa $end
$var wire 1 ^ aa $end
$var wire 4 _ Transis [3:0] $end
$var reg 1 ' a $end
$var reg 1 & b $end
$var reg 1 % c $end
$var reg 1 $ d $end
$var reg 1 # e $end
$var reg 3 ` estado_act [2:0] $end
$var reg 3 a estado_sig [2:0] $end
$var reg 1 " f $end
$var reg 1 ! g $end
$scope module cont_Tran_mul $end
$var wire 1 ) clk $end
$var wire 1 - rst $end
$var parameter 32 b WIDTH $end
$var reg 4 c fila [3:0] $end
$scope begin $ivl_for_loop0 $end
$var integer 32 d i [31:0] $end
$upscope $end
$upscope $end
$scope module deco_num1 $end
$var wire 1 Z a $end
$var wire 1 T b $end
$var wire 4 e bin [3:0] $end
$var wire 1 N c $end
$var wire 1 G d $end
$var wire 1 @ e $end
$var wire 1 : f $end
$var wire 1 4 g $end
$upscope $end
$scope module deco_num2 $end
$var wire 1 Y a $end
$var wire 1 S b $end
$var wire 4 f bin [3:0] $end
$var wire 1 M c $end
$var wire 1 F d $end
$var wire 1 ? e $end
$var wire 1 9 f $end
$var wire 1 3 g $end
$upscope $end
$scope module deco_tra1_mul $end
$var wire 1 ^ a $end
$var wire 1 X b $end
$var wire 1 R c $end
$var wire 1 K d $end
$var wire 1 D e $end
$var wire 1 > f $end
$var wire 1 8 g $end
$var wire 4 g bin [3:0] $end
$upscope $end
$scope module deco_tra2_mul $end
$var wire 1 ] a $end
$var wire 1 W b $end
$var wire 1 Q c $end
$var wire 1 J d $end
$var wire 1 C e $end
$var wire 1 = f $end
$var wire 1 7 g $end
$var wire 4 h bin [3:0] $end
$upscope $end
$scope module deco_tra3_mul $end
$var wire 1 \ a $end
$var wire 1 V b $end
$var wire 1 P c $end
$var wire 1 I d $end
$var wire 1 B e $end
$var wire 1 < f $end
$var wire 1 6 g $end
$var wire 4 i bin [3:0] $end
$upscope $end
$scope module deco_tra4_mul $end
$var wire 1 [ a $end
$var wire 1 U b $end
$var wire 1 O c $end
$var wire 1 H d $end
$var wire 1 A e $end
$var wire 1 ; f $end
$var wire 1 5 g $end
$var wire 4 j bin [3:0] $end
$upscope $end
$scope module inst_sep $end
$var wire 4 k cen [3:0] $end
$var wire 4 l dec [3:0] $end
$var wire 4 m mill [3:0] $end
$var wire 14 n num [13:0] $end
$var wire 4 o uni [3:0] $end
$var reg 4 p bcd_cen [3:0] $end
$var reg 4 q bcd_dec [3:0] $end
$var reg 4 r bcd_mill [3:0] $end
$var reg 4 s bcd_uni [3:0] $end
$var integer 32 t i [31:0] $end
$upscope $end
$upscope $end
$upscope $end
$enddefinitions $end
$comment Show the parameter values. $end
$dumpall
b100 b
$end
#0
$dumpvars
b11111111111111111111111111111111 t
b0 s
b0 r
b0 q
b0 p
b0 o
b0 n
b0 m
b0 l
b0 k
b0 j
b0 i
b0 h
b0 g
b0 f
b0 e
b0 d
bx c
b1 a
b0 `
bx _
1^
1]
1\
1[
1Z
1Y
1X
1W
1V
1U
1T
1S
1R
1Q
1P
1O
1N
1M
b0 L
1K
1J
1I
1H
1G
1F
b0 E
1D
1C
1B
1A
1@
1?
1>
1=
1<
1;
1:
19
08
07
06
05
04
03
b0 2
b0 1
b0 0
b0 /
b0 .
1-
b0 ,
b0 +
b0 *
0)
bx (
0'
0&
0%
0$
0#
0"
0!
$end
#20
b11 d
1)
#40
0)
#60
b11 d
1)
#80
0)
#100
b11 d
1)
#120
0)
#140
b11 d
1)
#160
0)
#180
b11 d
1)
#200
0)
#220
b11 d
1)
#240
0)
#260
b11 d
1)
#280
0)
#300
b11 d
1)
#320
0)
#340
b11 d
1)
#360
0)
#380
b11 d
1)
#400
0)
#420
b11 d
1)
#440
0)
#460
b11 d
1)
#480
0)
#500
b11 d
1)
#520
0)
#540
b11 d
1)
#560
0)
#580
b11 d
1)
#600
0)
#620
b11 d
1)
#640
0)
#660
b11 d
1)
#680
0)
#700
b11 d
1)
#720
0)
#740
b11 d
1)
#760
0)
#780
b11 d
1)
#800
0)
#820
b11 d
1)
#840
0)
#860
b11 d
1)
#880
0)
#900
b11 d
1)
#920
0)
#940
b11 d
1)
#960
0)
#980
b11 d
1)
#1000
0)
#1020
b11 d
1)
#1040
0)
#1060
b11 d
1)
#1080
0)
#1100
b11 d
1)
#1120
0)
#1140
b11 d
1)
#1160
0)
#1180
b11 d
1)
#1200
0)
#1220
b11 d
1)
#1240
0)
#1260
b11 d
1)
#1280
0)
#1300
b11 d
1)
#1320
0)
#1340
b11 d
1)
#1360
0)
#1380
b11 d
1)
#1400
0)
#1420
b11 d
1)
#1440
0)
#1460
b11 d
1)
#1480
0)
#1500
b11 d
1)
#1520
0)
#1540
b11 d
1)
#1560
0)
#1580
b11 d
1)
#1600
0)
#1620
b11 d
1)
#1640
0)
#1660
b11 d
1)
#1680
0)
#1700
b11 d
1)
#1720
0)
#1740
b11 d
1)
#1760
0)
#1780
b11 d
1)
#1800
0)
#1820
b11 d
1)
#1840
0)
#1860
b11 d
1)
#1880
0)
#1900
b11 d
1)
#1920
0)
#1940
b11 d
1)
#1960
0)
#1980
b11 d
1)
#2000
0)
#2020
b11 d
1)
#2040
0)
#2060
b11 d
1)
#2080
0)
#2100
b11 d
1)
#2120
0)
#2140
b11 d
1)
#2160
0)
#2180
b11 d
1)
#2200
0)
#2220
b11 d
1)
#2240
0)
#2260
b11 d
1)
#2280
0)
#2300
b11 d
1)
#2320
0)
#2340
b11 d
1)
#2360
0)
#2380
b11 d
1)
#2400
0)
#2420
b11 d
1)
#2440
0)
#2460
b11 d
1)
#2480
0)
#2500
b11 d
1)
#2520
0)
#2540
b11 d
1)
#2560
0)
#2580
b11 d
1)
#2600
0)
#2620
b11 d
1)
#2640
0)
#2660
b11 d
1)
#2680
0)
#2700
b11 d
1)
#2720
0)
#2740
b11 d
1)
#2760
0)
#2780
b11 d
1)
#2800
0)
#2820
b11 d
1)
#2840
0)
#2860
b11 d
1)
#2880
0)
#2900
b11 d
1)
#2920
0)
#2940
b11 d
1)
#2960
0)
#2980
b11 d
1)
#3000
0)
#3020
b11 d
1)
#3040
0)
#3060
b11 d
1)
#3080
0)
#3100
b11 d
1)
#3120
0)
#3140
b11 d
1)
#3160
0)
#3180
b11 d
1)
#3200
0)
#3220
b11 d
1)
#3240
0)
#3260
b11 d
1)
#3280
0)
#3300
b11 d
1)
#3320
0)
#3340
b11 d
1)
#3360
0)
#3380
b11 d
1)
#3400
0)
#3420
b11 d
1)
#3440
0)
#3460
b11 d
1)
#3480
0)
#3500
b11 d
1)
#3520
0)
#3540
b11 d
1)
#3560
0)
#3580
b11 d
1)
#3600
0)
#3620
b11 d
1)
#3640
0)
#3660
b11 d
1)
#3680
0)
#3700
b11 d
1)
#3720
0)
#3740
b11 d
1)
#3760
0)
#3780
b11 d
1)
#3800
0)
#3820
b11 d
1)
#3840
0)
#3860
b11 d
1)
#3880
0)
#3900
b11 d
1)
#3920
0)
#3940
b11 d
1)
#3960
0)
#3980
b11 d
1)
#4000
0)
#4020
b11 d
1)
#4040
0)
#4060
b11 d
1)
#4080
0)
#4100
b11 d
1)
#4120
0)
#4140
b11 d
1)
#4160
0)
#4180
b11 d
1)
#4200
0)
#4220
b11 d
1)
#4240
0)
#4260
b11 d
1)
#4280
0)
#4300
b11 d
1)
#4320
0)
#4340
b11 d
1)
#4360
0)
#4380
b11 d
1)
#4400
0)
#4420
b11 d
1)
#4440
0)
#4460
b11 d
1)
#4480
0)
#4500
b11 d
1)
#4520
0)
#4540
b11 d
1)
#4560
0)
#4580
b11 d
1)
#4600
0)
#4620
b11 d
1)
#4640
0)
#4660
b11 d
1)
#4680
0)
#4700
b11 d
1)
#4720
0)
#4740
b11 d
1)
#4760
0)
#4780
b11 d
1)
#4800
0)
#4820
b11 d
1)
#4840
0)
#4860
b11 d
1)
#4880
0)
#4900
b11 d
1)
#4920
0)
#4940
b11 d
1)
#4960
0)
#4980
b11 d
1)
#5000
0)
#5020
b11 d
1)
#5040
0)
#5060
b11 d
1)
#5080
0)
#5100
b11 d
1)
#5120
0)
#5140
b11 d
1)
#5160
0)
#5180
b11 d
1)
#5200
0)
#5220
b11 d
1)
#5240
0)
#5260
b11 d
1)
#5280
0)
#5300
b11 d
1)
#5320
0)
#5340
b11 d
1)
#5360
0)
#5380
b11 d
1)
#5400
0)
#5420
b11 d
1)
#5440
0)
#5460
b11 d
1)
#5480
0)
#5500
b11 d
1)
#5520
0)
#5540
b11 d
1)
#5560
0)
#5580
b11 d
1)
#5600
0)
#5620
b11 d
1)
#5640
0)
#5660
b11 d
1)
#5680
0)
#5700
b11 d
1)
#5720
0)
#5740
b11 d
1)
#5760
0)
#5780
b11 d
1)
#5800
0)
#5820
b11 d
1)
#5840
0)
#5860
b11 d
1)
#5880
0)
#5900
b11 d
1)
#5920
0)
#5940
b11 d
1)
#5960
0)
#5980
b11 d
1)
#6000
0)
#6020
b11 d
1)
#6040
0)
#6060
b11 d
1)
#6080
0)
#6100
b11 d
1)
#6120
0)
#6140
b11 d
1)
#6160
0)
#6180
b11 d
1)
#6200
0)
#6220
b11 d
1)
#6240
0)
#6260
b11 d
1)
#6280
0)
#6300
b11 d
1)
#6320
0)
#6340
b11 d
1)
#6360
0)
#6380
b11 d
1)
#6400
0)
#6420
b11 d
1)
#6440
0)
#6460
b11 d
1)
#6480
0)
#6500
b11 d
1)
#6520
0)
#6540
b11 d
1)
#6560
0)
#6580
b11 d
1)
#6600
0)
#6620
b11 d
1)
#6640
0)
#6660
b11 d
1)
#6680
0)
#6700
b11 d
1)
#6720
0)
#6740
b11 d
1)
#6760
0)
#6780
b11 d
1)
#6800
0)
#6820
b11 d
1)
#6840
0)
#6860
b11 d
1)
#6880
0)
#6900
b11 d
1)
#6920
0)
#6940
b11 d
1)
#6960
0)
#6980
b11 d
1)
#7000
0)
#7020
b11 d
1)
#7040
0)
#7060
b11 d
1)
#7080
0)
#7100
b11 d
1)
#7120
0)
#7140
b11 d
1)
#7160
0)
#7180
b11 d
1)
#7200
0)
#7220
b11 d
1)
#7240
0)
#7260
b11 d
1)
#7280
0)
#7300
b11 d
1)
#7320
0)
#7340
b11 d
1)
#7360
0)
#7380
b11 d
1)
#7400
0)
#7420
b11 d
1)
#7440
0)
#7460
b11 d
1)
#7480
0)
#7500
b11 d
1)
#7520
0)
#7540
b11 d
1)
#7560
0)
#7580
b11 d
1)
#7600
0)
#7620
b11 d
1)
#7640
0)
#7660
b11 d
1)
#7680
0)
#7700
b11 d
1)
#7720
0)
#7740
b11 d
1)
#7760
0)
#7780
b11 d
1)
#7800
0)
#7820
b11 d
1)
#7840
0)
#7860
b11 d
1)
#7880
0)
#7900
b11 d
1)
#7920
0)
#7940
b11 d
1)
#7960
0)
#7980
b11 d
1)
#8000
0)
#8020
b11 d
1)
#8040
0)
#8060
b11 d
1)
#8080
0)
#8100
b11 d
1)
#8120
0)
#8140
b11 d
1)
#8160
0)
#8180
b11 d
1)
#8200
0)
#8220
b11 d
1)
#8240
0)
#8260
b11 d
1)
#8280
0)
#8300
b11 d
1)
#8320
0)
#8340
b11 d
1)
#8360
0)
#8380
b11 d
1)
#8400
0)
#8420
b11 d
1)
#8440
0)
#8460
b11 d
1)
#8480
0)
#8500
b11 d
1)
#8520
0)
#8540
b11 d
1)
#8560
0)
#8580
b11 d
1)
#8600
0)
#8620
b11 d
1)
#8640
0)
#8660
b11 d
1)
#8680
0)
#8700
b11 d
1)
#8720
0)
#8740
b11 d
1)
#8760
0)
#8780
b11 d
1)
#8800
0)
#8820
b11 d
1)
#8840
0)
#8860
b11 d
1)
#8880
0)
#8900
b11 d
1)
#8920
0)
#8940
b11 d
1)
#8960
0)
#8980
b11 d
1)
#9000
0)
#9020
b11 d
1)
#9040
0)
#9060
b11 d
1)
#9080
0)
#9100
b11 d
1)
#9120
0)
#9140
b11 d
1)
#9160
0)
#9180
b11 d
1)
#9200
0)
#9220
b11 d
1)
#9240
0)
#9260
b11 d
1)
#9280
0)
#9300
b11 d
1)
#9320
0)
#9340
b11 d
1)
#9360
0)
#9380
b11 d
1)
#9400
0)
#9420
b11 d
1)
#9440
0)
#9460
b11 d
1)
#9480
0)
#9500
b11 d
1)
#9520
0)
#9540
b11 d
1)
#9560
0)
#9580
b11 d
1)
#9600
0)
#9620
b11 d
1)
#9640
0)
#9660
b11 d
1)
#9680
0)
#9700
b11 d
1)
#9720
0)
#9740
b11 d
1)
#9760
0)
#9780
b11 d
1)
#9800
0)
#9820
b11 d
1)
#9840
0)
#9860
b11 d
1)
#9880
0)
#9900
b11 d
1)
#9920
0)
#9940
b11 d
1)
#9960
0)
#9980
b11 d
1)
#10000
0)
#10020
b11 d
1)
#10040
0)
#10060
b11 d
1)
#10080
0)
#10100
b11 d
1)
#10120
0)
#10140
b11 d
1)
#10160
0)
#10180
b11 d
1)
#10200
0)
#10220
b11 d
1)
#10240
0)
#10260
b11 d
1)
#10280
0)
#10300
b11 d
1)
#10320
0)
#10340
b11 d
1)
#10360
0)
#10380
b11 d
1)
#10400
0)
#10420
b11 d
1)
#10440
0)
#10460
b11 d
1)
#10480
0)
#10500
b11 d
1)
#10520
0)
#10540
b11 d
1)
#10560
0)
#10580
b11 d
1)
#10600
0)
#10620
b11 d
1)
#10640
0)
#10660
b11 d
1)
#10680
0)
#10700
b11 d
1)
#10720
0)
#10740
b11 d
1)
#10760
0)
#10780
b11 d
1)
#10800
0)
#10820
b11 d
1)
#10840
0)
#10860
b11 d
1)
#10880
0)
#10900
b11 d
1)
#10920
0)
#10940
b11 d
1)
#10960
0)
#10980
b11 d
1)
#11000
0)
#11020
b11 d
1)
#11040
0)
#11060
b11 d
1)
#11080
0)
#11100
b11 d
1)
#11120
0)
#11140
b11 d
1)
#11160
0)
#11180
b11 d
1)
#11200
0)
#11220
b11 d
1)
#11240
0)
#11260
b11 d
1)
#11280
0)
#11300
b11 d
1)
#11320
0)
#11340
b11 d
1)
#11360
0)
#11380
b11 d
1)
#11400
0)
#11420
b11 d
1)
#11440
0)
#11460
b11 d
1)
#11480
0)
#11500
b11 d
1)
#11520
0)
#11540
b11 d
1)
#11560
0)
#11580
b11 d
1)
#11600
0)
#11620
b11 d
1)
#11640
0)
#11660
b11 d
1)
#11680
0)
#11700
b11 d
1)
#11720
0)
#11740
b11 d
1)
#11760
0)
#11780
b11 d
1)
#11800
0)
#11820
b11 d
1)
#11840
0)
#11860
b11 d
1)
#11880
0)
#11900
b11 d
1)
#11920
0)
#11940
b11 d
1)
#11960
0)
#11980
b11 d
1)
#12000
0)
#12020
b11 d
1)
#12040
0)
#12060
b11 d
1)
#12080
0)
#12100
b11 d
1)
#12120
0)
#12140
b11 d
1)
#12160
0)
#12180
b11 d
1)
#12200
0)
#12220
b11 d
1)
#12240
0)
#12260
b11 d
1)
#12280
0)
#12300
b11 d
1)
#12320
0)
#12340
b11 d
1)
#12360
0)
#12380
b11 d
1)
#12400
0)
#12420
b11 d
1)
#12440
0)
#12460
b11 d
1)
#12480
0)
#12500
b11 d
1)
#12520
0)
#12540
b11 d
1)
#12560
0)
#12580
b11 d
1)
#12600
0)
#12620
b11 d
1)
#12640
0)
#12660
b11 d
1)
#12680
0)
#12700
b11 d
1)
#12720
0)
#12740
b11 d
1)
#12760
0)
#12780
b11 d
1)
#12800
0)
#12820
b11 d
1)
#12840
0)
#12860
b11 d
1)
#12880
0)
#12900
b11 d
1)
#12920
0)
#12940
b11 d
1)
#12960
0)
#12980
b11 d
1)
#13000
0)
#13020
b11 d
1)
#13040
0)
#13060
b11 d
1)
#13080
0)
#13100
b11 d
1)
#13120
0)
#13140
b11 d
1)
#13160
0)
#13180
b11 d
1)
#13200
0)
#13220
b11 d
1)
#13240
0)
#13260
b11 d
1)
#13280
0)
#13300
b11 d
1)
#13320
0)
#13340
b11 d
1)
#13360
0)
#13380
b11 d
1)
#13400
0)
#13420
b11 d
1)
#13440
0)
#13460
b11 d
1)
#13480
0)
#13500
b11 d
1)
#13520
0)
#13540
b11 d
1)
#13560
0)
#13580
b11 d
1)
#13600
0)
#13620
b11 d
1)
#13640
0)
#13660
b11 d
1)
#13680
0)
#13700
b11 d
1)
#13720
0)
#13740
b11 d
1)
#13760
0)
#13780
b11 d
1)
#13800
0)
#13820
b11 d
1)
#13840
0)
#13860
b11 d
1)
#13880
0)
#13900
b11 d
1)
#13920
0)
#13940
b11 d
1)
#13960
0)
#13980
b11 d
1)
#14000
0)
#14020
b11 d
1)
#14040
0)
#14060
b11 d
1)
#14080
0)
#14100
b11 d
1)
#14120
0)
#14140
b11 d
1)
#14160
0)
#14180
b11 d
1)
#14200
0)
#14220
b11 d
1)
#14240
0)
#14260
b11 d
1)
#14280
0)
#14300
b11 d
1)
#14320
0)
#14340
b11 d
1)
#14360
0)
#14380
b11 d
1)
#14400
0)
#14420
b11 d
1)
#14440
0)
#14460
b11 d
1)
#14480
0)
#14500
b11 d
1)
#14520
0)
#14540
b11 d
1)
#14560
0)
#14580
b11 d
1)
#14600
0)
#14620
b11 d
1)
#14640
0)
#14660
b11 d
1)
#14680
0)
#14700
b11 d
1)
#14720
0)
#14740
b11 d
1)
#14760
0)
#14780
b11 d
1)
#14800
0)
#14820
b11 d
1)
#14840
0)
#14860
b11 d
1)
#14880
0)
#14900
b11 d
1)
#14920
0)
#14940
b11 d
1)
#14960
0)
#14980
b11 d
1)
#15000
0)
#15020
b11 d
1)
#15040
0)
#15060
b11 d
1)
#15080
0)
#15100
b11 d
1)
#15120
0)
#15140
b11 d
1)
#15160
0)
#15180
b11 d
1)
#15200
0)
#15220
b11 d
1)
#15240
0)
#15260
b11 d
1)
#15280
0)
#15300
b11 d
1)
#15320
0)
#15340
b11 d
1)
#15360
0)
#15380
b11 d
1)
#15400
0)
#15420
b11 d
1)
#15440
0)
#15460
b11 d
1)
#15480
0)
#15500
b11 d
1)
#15520
0)
#15540
b11 d
1)
#15560
0)
#15580
b11 d
1)
#15600
0)
#15620
b11 d
1)
#15640
0)
#15660
b11 d
1)
#15680
0)
#15700
b11 d
1)
#15720
0)
#15740
b11 d
1)
#15760
0)
#15780
b11 d
1)
#15800
0)
#15820
b11 d
1)
#15840
0)
#15860
b11 d
1)
#15880
0)
#15900
b11 d
1)
#15920
0)
#15940
b11 d
1)
#15960
0)
#15980
b11 d
1)
#16000
0)
#16020
b11 d
1)
#16040
0)
#16060
b11 d
1)
#16080
0)
#16100
b11 d
1)
#16120
0)
#16140
b11 d
1)
#16160
0)
#16180
b11 d
1)
#16200
0)
#16220
b11 d
1)
#16240
0)
#16260
b11 d
1)
#16280
0)
#16300
b11 d
1)
#16320
0)
#16340
b11 d
1)
#16360
0)
#16380
b11 d
1)
#16400
0)
#16420
b11 d
1)
#16440
0)
#16460
b11 d
1)
#16480
0)
#16500
b11 d
1)
#16520
0)
#16540
b11 d
1)
#16560
0)
#16580
b11 d
1)
#16600
0)
#16620
b11 d
1)
#16640
0)
#16660
b11 d
1)
#16680
0)
#16700
b11 d
1)
#16720
0)
#16740
b11 d
1)
#16760
0)
#16780
b11 d
1)
#16800
0)
#16820
b11 d
1)
#16840
0)
#16860
b11 d
1)
#16880
0)
#16900
b11 d
1)
#16920
0)
#16940
b11 d
1)
#16960
0)
#16980
b11 d
1)
#17000
0)
#17020
b11 d
1)
#17040
0)
#17060
b11 d
1)
#17080
0)
#17100
b11 d
1)
#17120
0)
#17140
b11 d
1)
#17160
0)
#17180
b11 d
1)
#17200
0)
#17220
b11 d
1)
#17240
0)
#17260
b11 d
1)
#17280
0)
#17300
b11 d
1)
#17320
0)
#17340
b11 d
1)
#17360
0)
#17380
b11 d
1)
#17400
0)
#17420
b11 d
1)
#17440
0)
#17460
b11 d
1)
#17480
0)
#17500
b11 d
1)
#17520
0)
#17540
b11 d
1)
#17560
0)
#17580
b11 d
1)
#17600
0)
#17620
b11 d
1)
#17640
0)
#17660
b11 d
1)
#17680
0)
#17700
b11 d
1)
#17720
0)
#17740
b11 d
1)
#17760
0)
#17780
b11 d
1)
#17800
0)
#17820
b11 d
1)
#17840
0)
#17860
b11 d
1)
#17880
0)
#17900
b11 d
1)
#17920
0)
#17940
b11 d
1)
#17960
0)
#17980
b11 d
1)
#18000
0)
#18020
b11 d
1)
#18040
0)
#18060
b11 d
1)
#18080
0)
#18100
b11 d
1)
#18120
0)
#18140
b11 d
1)
#18160
0)
#18180
b11 d
1)
#18200
0)
#18220
b11 d
1)
#18240
0)
#18260
b11 d
1)
#18280
0)
#18300
b11 d
1)
#18320
0)
#18340
b11 d
1)
#18360
0)
#18380
b11 d
1)
#18400
0)
#18420
b11 d
1)
#18440
0)
#18460
b11 d
1)
#18480
0)
#18500
b11 d
1)
#18520
0)
#18540
b11 d
1)
#18560
0)
#18580
b11 d
1)
#18600
0)
#18620
b11 d
1)
#18640
0)
#18660
b11 d
1)
#18680
0)
#18700
b11 d
1)
#18720
0)
#18740
b11 d
1)
#18760
0)
#18780
b11 d
1)
#18800
0)
#18820
b11 d
1)
#18840
0)
#18860
b11 d
1)
#18880
0)
#18900
b11 d
1)
#18920
0)
#18940
b11 d
1)
#18960
0)
#18980
b11 d
1)
#19000
0)
#19020
b11 d
1)
#19040
0)
#19060
b11 d
1)
#19080
0)
#19100
b11 d
1)
#19120
0)
#19140
b11 d
1)
#19160
0)
#19180
b11 d
1)
#19200
0)
#19220
b11 d
1)
#19240
0)
#19260
b11 d
1)
#19280
0)
#19300
b11 d
1)
#19320
0)
#19340
b11 d
1)
#19360
0)
#19380
b11 d
1)
#19400
0)
#19420
b11 d
1)
#19440
0)
#19460
b11 d
1)
#19480
0)
#19500
b11 d
1)
#19520
0)
#19540
b11 d
1)
#19560
0)
#19580
b11 d
1)
#19600
0)
#19620
b11 d
1)
#19640
0)
#19660
b11 d
1)
#19680
0)
#19700
b11 d
1)
#19720
0)
#19740
b11 d
1)
#19760
0)
#19780
b11 d
1)
#19800
0)
#19820
b11 d
1)
#19840
0)
#19860
b11 d
1)
#19880
0)
#19900
b11 d
1)
#19920
0)
#19940
b11 d
1)
#19960
0)
#19980
b11 d
1)
#20000
0)
0-
#20020
b1 (
b1 _
b1 c
b1 `
1)
