Tarea_3/src/build/module_control_tb.vcd
$date
	Thu Nov 21 00:59:43 2024
$end
$version
	Icarus Verilog
$end
$timescale
	1ps
$end
$scope module control_tb $end
$var wire 7 ! seg_tb [6:0] $end
$var wire 4 " fila_tb [3:0] $end
$var wire 4 # an_tb [3:0] $end
$var reg 1 $ clk_tb $end
$var reg 1 % col_0_tb $end
$var reg 1 & col_1_tb $end
$var reg 1 ' col_2_tb $end
$var reg 1 ( col_3_tb $end
$var reg 1 ) rst_tb $end
$scope module DUT $end
$var wire 1 $ clk $end
$var wire 1 % col_0 $end
$var wire 1 & col_1 $end
$var wire 1 ' col_2 $end
$var wire 1 ( col_3 $end
$var wire 1 ) rst $end
$var wire 3 * tecla_cont [2:0] $end
$var wire 16 + resultado [15:0] $end
$var wire 12 , num_result2 [11:0] $end
$var wire 12 - num_result1 [11:0] $end
$var wire 1 . done $end
$var wire 1 / col3 $end
$var wire 1 0 col2 $end
$var wire 1 1 col1 $end
$var wire 1 2 col0 $end
$var wire 16 3 bcd_out [15:0] $end
$var wire 7 4 Seg [6:0] $end
$var wire 4 5 An [3:0] $end
$var reg 1 6 almac $end
$var reg 4 7 an [3:0] $end
$var reg 16 8 binary_in [15:0] $end
$var reg 3 9 estado_act [2:0] $end
$var reg 3 : estado_sig [2:0] $end
$var reg 4 ; fila [3:0] $end
$var reg 8 < num1 [7:0] $end
$var reg 4 = num1_dec1 [3:0] $end
$var reg 4 > num1_dec2 [3:0] $end
$var reg 8 ? num2 [7:0] $end
$var reg 4 @ num2_dec1 [3:0] $end
$var reg 4 A num2_dec2 [3:0] $end
$var reg 16 B result [15:0] $end
$var reg 7 C seg [6:0] $end
$var reg 1 D start $end
$var reg 1 E sum $end
$var reg 4 F tecla [3:0] $end
$var reg 4 G tecla_opera [3:0] $end
$var reg 4 H tecla_pre [3:0] $end
$scope module inst_alma $end
$var wire 1 6 almac $end
$var wire 1 $ clk $end
$var wire 4 I num1_dec1 [3:0] $end
$var wire 4 J num1_dec2 [3:0] $end
$var wire 4 K num2_dec1 [3:0] $end
$var wire 4 L num2_dec2 [3:0] $end
$var wire 1 ) rst $end
$var reg 12 M num_result1 [11:0] $end
$var reg 12 N num_result2 [11:0] $end
$upscope $end
$scope module inst_codificador $end
$var wire 16 O binary_in [15:0] $end
$var wire 1 $ clk $end
$var reg 16 P bcd_out [15:0] $end
$var reg 32 Q shift_reg [31:0] $end
$var integer 32 R state [31:0] $end
$scope begin $ivl_for_loop0 $end
$var integer 32 S j [31:0] $end
$upscope $end
$upscope $end
$scope module inst_displ $end
$var wire 7 T Seg [6:0] $end
$var wire 1 $ clk $end
$var wire 16 U data [15:0] $end
$var wire 16 V result [15:0] $end
$var reg 4 W anodes [3:0] $end
$var reg 4 X dig [3:0] $end
$var reg 7 Y number [6:0] $end
$var reg 1 Z slow_clock $end
$var reg 4 [ state [3:0] $end
$var integer 32 \ count [31:0] $end
$upscope $end
$scope module inst_mult $end
$var wire 8 ] A [7:0] $end
$var wire 8 ^ B [7:0] $end
$var wire 1 $ clk $end
$var wire 1 D start $end
$var reg 16 _ acumulador [15:0] $end
$var reg 1 ` busy $end
$var reg 8 a contador [7:0] $end
$var reg 1 . done $end
$var reg 8 b multiplicador [7:0] $end
$var reg 8 c multiplicando [7:0] $end
$var reg 16 d resultado [15:0] $end
$upscope $end
$scope module inst_tecla_cont $end
$var wire 1 $ clk $end
$var wire 1 ) rst $end
$var wire 4 e tecla_pre [3:0] $end
$var reg 4 f tecla_ant [3:0] $end
$var reg 3 g tecla_cont [2:0] $end
$upscope $end
$scope module insta_reb_col0 $end
$var wire 1 % boton $end
$var wire 1 2 boton_sal $end
$var wire 1 $ clk $end
$var wire 1 h q2_com $end
$var wire 1 i q2 $end
$var wire 1 j q1 $end
$var wire 1 k q0 $end
$var wire 1 l clk_hab $end
$scope module clk_ha $end
$var wire 1 $ clk $end
$var parameter 32 m fre $end
$var parameter 32 n frecuencia $end
$var parameter 64 o max_cuenta $end
$var reg 1 l clk_div $end
$var reg 5 p cuenta [4:0] $end
$upscope $end
$scope module ff1 $end
$var wire 1 % D $end
$var wire 1 $ clk $end
$var wire 1 l clk_hab $end
$var reg 1 k Q $end
$upscope $end
$scope module ff2 $end
$var wire 1 k D $end
$var wire 1 $ clk $end
$var wire 1 l clk_hab $end
$var reg 1 j Q $end
$upscope $end
$scope module ff3 $end
$var wire 1 j D $end
$var wire 1 $ clk $end
$var wire 1 l clk_hab $end
$var reg 1 i Q $end
$upscope $end
$upscope $end
$scope module insta_reb_col1 $end
$var wire 1 & boton $end
$var wire 1 1 boton_sal $end
$var wire 1 $ clk $end
$var wire 1 q q2_com $end
$var wire 1 r q2 $end
$var wire 1 s q1 $end
$var wire 1 t q0 $end
$var wire 1 u clk_hab $end
$scope module clk_ha $end
$var wire 1 $ clk $end
$var parameter 32 v fre $end
$var parameter 32 w frecuencia $end
$var parameter 64 x max_cuenta $end
$var reg 1 u clk_div $end
$var reg 5 y cuenta [4:0] $end
$upscope $end
$scope module ff1 $end
$var wire 1 & D $end
$var wire 1 $ clk $end
$var wire 1 u clk_hab $end
$var reg 1 t Q $end
$upscope $end
$scope module ff2 $end
$var wire 1 t D $end
$var wire 1 $ clk $end
$var wire 1 u clk_hab $end
$var reg 1 s Q $end
$upscope $end
$scope module ff3 $end
$var wire 1 s D $end
$var wire 1 $ clk $end
$var wire 1 u clk_hab $end
$var reg 1 r Q $end
$upscope $end
$upscope $end
$scope module insta_reb_col2 $end
$var wire 1 ' boton $end
$var wire 1 0 boton_sal $end
$var wire 1 $ clk $end
$var wire 1 z q2_com $end
$var wire 1 { q2 $end
$var wire 1 | q1 $end
$var wire 1 } q0 $end
$var wire 1 ~ clk_hab $end
$scope module clk_ha $end
$var wire 1 $ clk $end
$var parameter 32 !" fre $end
$var parameter 32 "" frecuencia $end
$var parameter 64 #" max_cuenta $end
$var reg 1 ~ clk_div $end
$var reg 5 $" cuenta [4:0] $end
$upscope $end
$scope module ff1 $end
$var wire 1 ' D $end
$var wire 1 $ clk $end
$var wire 1 ~ clk_hab $end
$var reg 1 } Q $end
$upscope $end
$scope module ff2 $end
$var wire 1 } D $end
$var wire 1 $ clk $end
$var wire 1 ~ clk_hab $end
$var reg 1 | Q $end
$upscope $end
$scope module ff3 $end
$var wire 1 | D $end
$var wire 1 $ clk $end
$var wire 1 ~ clk_hab $end
$var reg 1 { Q $end
$upscope $end
$upscope $end
$scope module insta_reb_col3 $end
$var wire 1 ( boton $end
$var wire 1 / boton_sal $end
$var wire 1 $ clk $end
$var wire 1 %" q2_com $end
$var wire 1 &" q2 $end
$var wire 1 '" q1 $end
$var wire 1 (" q0 $end
$var wire 1 )" clk_hab $end
$scope module clk_ha $end
$var wire 1 $ clk $end
$var parameter 32 *" fre $end
$var parameter 32 +" frecuencia $end
$var parameter 64 ," max_cuenta $end
$var reg 1 )" clk_div $end
$var reg 5 -" cuenta [4:0] $end
$upscope $end
$scope module ff1 $end
$var wire 1 ( D $end
$var wire 1 $ clk $end
$var wire 1 )" clk_hab $end
$var reg 1 (" Q $end
$upscope $end
$scope module ff2 $end
$var wire 1 (" D $end
$var wire 1 $ clk $end
$var wire 1 )" clk_hab $end
$var reg 1 '" Q $end
$upscope $end
$scope module ff3 $end
$var wire 1 '" D $end
$var wire 1 $ clk $end
$var wire 1 )" clk_hab $end
$var reg 1 &" Q $end
$upscope $end
$upscope $end
$upscope $end
$upscope $end
$enddefinitions $end
$comment Show the parameter values. $end
$dumpall
b1101 ,"
b1100110111111110011000000 +"
b11110100001001000000 *"
b1101 #"
b1100110111111110011000000 ""
b11110100001001000000 !"
b1101 x
b1100110111111110011000000 w
b11110100001001000000 v
b1101 o
b1100110111111110011000000 n
b11110100001001000000 m
$end
#0
$dumpvars
b0 -"
0)"
0("
0'"
0&"
1%"
b0 $"
0~
0}
0|
0{
1z
b0 y
0u
0t
0s
0r
1q
b0 p
0l
0k
0j
0i
1h
bx g
bx f
bx e
bx d
bx c
bx b
bx a
x`
bx _
bx ^
bx ]
b0 \
b0 [
0Z
bx Y
bx X
bx W
bx V
bx U
bx T
b0 S
b0 R
bx Q
bx P
bx O
bx N
bx M
bx L
bx K
bx J
bx I
bx H
bx G
bx F
xE
xD
bx C
bx B
bx A
bx @
bx ?
bx >
bx =
bx <
b1 ;
bx :
bx 9
bx 8
bx 7
x6
bx 5
bx 4
bx 3
02
01
00
0/
x.
bx -
bx ,
bx +
bx *
0)
0(
0'
0&
0%
0$
bx #
b1 "
bx !
$end
#18500
b0 9
b1 p
b1 y
b1 $"
b1 -"
b1 \
b1 R
b0xxxxxxxxxxxxxxxx Q
b0 :
1$
#20000
b0 ,
b0 N
b0 -
b0 M
b0 *
b0 g
b0 f
1)
#25000
0)
#37000
0$
#55500
b10 \
b10 -"
b10 $"
b10 y
b10 p
b10 R
b0xxxxxxxxxxxxxxxx0 Q
b100 S
1$
#74000
0$
#92500
b11 p
b11 y
b11 $"
b11 -"
b11 \
b11 R
b0xxxxxxxxxxxxxxxx00 Q
b100 S
1$
#111000
0$
#129500
b0 4
b0 T
b0 Y
b1 [
b1110 5
b1110 W
1Z
b0 \
b100 -"
b100 $"
b100 y
b100 p
b100 R
b0xxxxxxxxxxxxxxxx000 Q
b100 S
1$
#148000
0$
#166500
b101 p
b101 y
b101 $"
b101 -"
b1 \
b101 R
b0xxxxxxxxxxxxxxxx0000 Q
b100 S
1$
#185000
0$
#203500
b10 \
b110 -"
b110 $"
b110 y
b110 p
b110 R
b0xxxxxxxxxxxxxxxx00000 Q
b100 S
1$
#222000
0$
#240500
b111 p
b111 y
b111 $"
b111 -"
b11 \
b111 R
b0xxxxxxxxxxxxxxxx000000 Q
b100 S
1$
#259000
0$
#277500
0Z
b0 \
b1000 -"
b1000 $"
b1000 y
b1000 p
b1000 R
b0xxxxxxxxxxxxxxxx0000000 Q
b100 S
1$
#296000
0$
#314500
b1001 p
b1001 y
b1001 $"
b1001 -"
b1 \
b1001 R
b0xxxxxxxxxxxxxxxx00000000 Q
b100 S
1$
#333000
0$
#351500
b10 \
b1010 -"
b1010 $"
b1010 y
b1010 p
b1010 R
b0xxxxxxxxxxxxxxxx000000000 Q
b100 S
1$
#370000
0$
#388500
b1011 p
b1011 y
b1011 $"
b1011 -"
b11 \
b1011 R
b0xxxxxxxxxxxxxxxx0000000000 Q
b100 S
1$
#407000
0$
#425500
b10 [
b1101 5
b1101 W
1Z
b0 \
b1100 -"
b1100 $"
b1100 y
b1100 p
b1100 R
b0xxxxxxxxxxxxxxxx00000000000 Q
b100 S
1$
#444000
0$
#462500
b1101 p
b1101 y
b1101 $"
b1101 -"
b1 \
b1101 R
b0xxxxxxxxxxxxxxxx000000000000 Q
b100 S
1$
#481000
0$
#499500
b10 \
b0 -"
1)"
b0 $"
1~
b0 y
1u
b0 p
1l
b1110 R
b0xxxxxxxxxxxxxxxx0000000000000 Q
b100 S
1$
#518000
0$
#536500
b1 p
b1 y
b1 $"
b1 -"
b11 \
b1111 R
b0xxxxxxxxxxxxxxxx00000000000000 Q
b100 S
1$
#555000
0$
#573500
0Z
b0 \
b10 -"
b10 $"
b10 y
b10 p
b10000 R
b0xxxxxxxxxxxxxxxx000000000000000 Q
b100 S
1$
#592000
0$
#610500
b11 p
b11 y
b11 $"
b11 -"
b1 \
b10001 R
bx0000000000000000 Q
b100 S
1$
#629000
0$
#647500
b10 \
b100 -"
b100 $"
b100 y
b100 p
b0 R
1$
#666000
0$
#684500
b101 p
b101 y
b101 $"
b101 -"
b11 \
b1 R
b0xxxxxxxxxxxxxxxx Q
1$
#703000
0$
#721500
b11 [
b1011 5
b1011 W
1Z
b0 \
b110 -"
b110 $"
b110 y
b110 p
b10 R
b0xxxxxxxxxxxxxxxx0 Q
b100 S
1$
#740000
0$
#758500
b111 p
b111 y
b111 $"
b111 -"
b1 \
b11 R
b0xxxxxxxxxxxxxxxx00 Q
b100 S
1$
#777000
0$
#795500
b10 \
b1000 -"
b1000 $"
b1000 y
b1000 p
b100 R
b0xxxxxxxxxxxxxxxx000 Q
b100 S
1$
#814000
0$
#832500
b1001 p
b1001 y
b1001 $"
b1001 -"
b11 \
b101 R
b0xxxxxxxxxxxxxxxx0000 Q
b100 S
1$
#851000
0$
#869500
0Z
b0 \
b1010 -"
b1010 $"
b1010 y
b1010 p
b110 R
b0xxxxxxxxxxxxxxxx00000 Q
b100 S
1$
#888000
0$
#906500
b1011 p
b1011 y
b1011 $"
b1011 -"
b1 \
b111 R
b0xxxxxxxxxxxxxxxx000000 Q
b100 S
1$
#925000
0$
#943500
b10 \
b1100 -"
b1100 $"
b1100 y
b1100 p
b1000 R
b0xxxxxxxxxxxxxxxx0000000 Q
b100 S
1$
#962000
0$
#980500
b1101 p
b1101 y
b1101 $"
b1101 -"
b11 \
b1001 R
b0xxxxxxxxxxxxxxxx00000000 Q
b100 S
1$
#999000
0$
#1017500
b0 [
b111 5
b111 W
1Z
b0 \
b0 -"
0)"
b0 $"
0~
b0 y
0u
b0 p
0l
b1010 R
b0xxxxxxxxxxxxxxxx000000000 Q
b100 S
1$
#1036000
0$
#1054500
b1 p
b1 y
b1 $"
b1 -"
b1 \
b1011 R
b0xxxxxxxxxxxxxxxx0000000000 Q
b100 S
1$
#1073000
0$
#1091500
b10 \
b10 -"
b10 $"
b10 y
b10 p
b1100 R
b0xxxxxxxxxxxxxxxx00000000000 Q
b100 S
1$
#1110000
0$
#1128500
b11 p
b11 y
b11 $"
b11 -"
b11 \
b1101 R
b0xxxxxxxxxxxxxxxx000000000000 Q
b100 S
1$
#1147000
0$
#1165500
0Z
b0 \
b100 -"
b100 $"
b100 y
b100 p
b1110 R
b0xxxxxxxxxxxxxxxx0000000000000 Q
b100 S
1$
#1184000
0$
#1202500
b101 p
b101 y
b101 $"
b101 -"
b1 \
b1111 R
b0xxxxxxxxxxxxxxxx00000000000000 Q
b100 S
1$
#1221000
0$
#1239500
b10 \
b110 -"
b110 $"
b110 y
b110 p
b10000 R
b0xxxxxxxxxxxxxxxx000000000000000 Q
b100 S
1$
#1258000
0$
#1276500
b111 p
b111 y
b111 $"
b111 -"
b11 \
b10001 R
bx0000000000000000 Q
b100 S
1$
#1295000
0$
#1313500
b1 [
b1110 5
b1110 W
1Z
b0 \
b1000 -"
b1000 $"
b1000 y
b1000 p
b0 R
1$
#1332000
0$
#1350500
b1001 p
b1001 y
b1001 $"
b1001 -"
b1 \
b1 R
b0xxxxxxxxxxxxxxxx Q
1$
#1369000
0$
#1387500
b10 \
b1010 -"
b1010 $"
b1010 y
b1010 p
b10 R
b0xxxxxxxxxxxxxxxx0 Q
b100 S
1$
#1406000
0$
#1424500
b1011 p
b1011 y
b1011 $"
b1011 -"
b11 \
b11 R
b0xxxxxxxxxxxxxxxx00 Q
b100 S
1$
#1443000
0$
#1461500
0Z
b0 \
b1100 -"
b1100 $"
b1100 y
b1100 p
b100 R
b0xxxxxxxxxxxxxxxx000 Q
b100 S
1$
#1480000
0$
#1498500
b1101 p
b1101 y
b1101 $"
b1101 -"
b1 \
b101 R
b0xxxxxxxxxxxxxxxx0000 Q
b100 S
1$
#1517000
0$
#1535500
b10 \
b0 -"
1)"
b0 $"
1~
b0 y
1u
b0 p
1l
b110 R
b0xxxxxxxxxxxxxxxx00000 Q
b100 S
1$
#1554000
0$
#1572500
b1 p
b1 y
b1 $"
b1 -"
b11 \
b111 R
b0xxxxxxxxxxxxxxxx000000 Q
b100 S
1$
#1591000
0$
#1609500
b10 [
b1101 5
b1101 W
1Z
b0 \
b10 -"
b10 $"
b10 y
b10 p
b1000 R
b0xxxxxxxxxxxxxxxx0000000 Q
b100 S
1$
#1628000
0$
#1646500
b11 p
b11 y
b11 $"
b11 -"
b1 \
b1001 R
b0xxxxxxxxxxxxxxxx00000000 Q
b100 S
1$
#1665000
0$
#1683500
b10 \
b100 -"
b100 $"
b100 y
b100 p
b1010 R
b0xxxxxxxxxxxxxxxx000000000 Q
b100 S
1$
#1702000
0$
#1720500
b101 p
b101 y
b101 $"
b101 -"
b11 \
b1011 R
b0xxxxxxxxxxxxxxxx0000000000 Q
b100 S
1$
#1739000
0$
#1757500
0Z
b0 \
b110 -"
b110 $"
b110 y
b110 p
b1100 R
b0xxxxxxxxxxxxxxxx00000000000 Q
b100 S
1$
#1776000
0$
#1794500
b111 p
b111 y
b111 $"
b111 -"
b1 \
b1101 R
b0xxxxxxxxxxxxxxxx000000000000 Q
b100 S
1$
#1813000
0$
#1831500
b10 \
b1000 -"
b1000 $"
b1000 y
b1000 p
b1110 R
b0xxxxxxxxxxxxxxxx0000000000000 Q
b100 S
1$
#1850000
0$
#1868500
b1001 p
b1001 y
b1001 $"
b1001 -"
b11 \
b1111 R
b0xxxxxxxxxxxxxxxx00000000000000 Q
b100 S
1$
#1887000
0$
#1905500
b11 [
b1011 5
b1011 W
1Z
b0 \
b1010 -"
b1010 $"
b1010 y
b1010 p
b10000 R
b0xxxxxxxxxxxxxxxx000000000000000 Q
b100 S
1$
#1924000
0$
#1942500
b1011 p
b1011 y
b1011 $"
b1011 -"
b1 \
b10001 R
bx0000000000000000 Q
b100 S
1$
#1961000
0$
#1979500
b10 \
b1100 -"
b1100 $"
b1100 y
b1100 p
b0 R
1$
#1998000
0$
#2016500
b1101 p
b1101 y
b1101 $"
b1101 -"
b11 \
b1 R
b0xxxxxxxxxxxxxxxx Q
1$
#2035000
0$
#2053500
0Z
b0 \
b0 -"
0)"
b0 $"
0~
b0 y
0u
b0 p
0l
b10 R
b0xxxxxxxxxxxxxxxx0 Q
b100 S
1$
#2072000
0$
#2090500
b1 p
b1 y
b1 $"
b1 -"
b1 \
b11 R
b0xxxxxxxxxxxxxxxx00 Q
b100 S
1$
#2109000
0$
#2127500
b10 \
b10 -"
b10 $"
b10 y
b10 p
b100 R
b0xxxxxxxxxxxxxxxx000 Q
b100 S
1$
#2146000
0$
#2164500
b11 p
b11 y
b11 $"
b11 -"
b11 \
b101 R
b0xxxxxxxxxxxxxxxx0000 Q
b100 S
1$
#2183000
0$
#2201500
b0 [
b111 5
b111 W
1Z
b0 \
b100 -"
b100 $"
b100 y
b100 p
b110 R
b0xxxxxxxxxxxxxxxx00000 Q
b100 S
1$
#2220000
0$
#2238500
b101 p
b101 y
b101 $"
b101 -"
b1 \
b111 R
b0xxxxxxxxxxxxxxxx000000 Q
b100 S
1$
#2257000
0$
#2275500
b10 \
b110 -"
b110 $"
b110 y
b110 p
b1000 R
b0xxxxxxxxxxxxxxxx0000000 Q
b100 S
1$
#2294000
0$
#2312500
b111 p
b111 y
b111 $"
b111 -"
b11 \
b1001 R
b0xxxxxxxxxxxxxxxx00000000 Q
b100 S
1$
#2331000
0$
#2349500
0Z
b0 \
b1000 -"
b1000 $"
b1000 y
b1000 p
b1010 R
b0xxxxxxxxxxxxxxxx000000000 Q
b100 S
1$
#2368000
0$
#2386500
b1001 p
b1001 y
b1001 $"
b1001 -"
b1 \
b1011 R
b0xxxxxxxxxxxxxxxx0000000000 Q
b100 S
1$
#2405000
0$
#2423500
b10 \
b1010 -"
b1010 $"
b1010 y
b1010 p
b1100 R
b0xxxxxxxxxxxxxxxx00000000000 Q
b100 S
1$
#2442000
0$
#2460500
b1011 p
b1011 y
b1011 $"
b1011 -"
b11 \
b1101 R
b0xxxxxxxxxxxxxxxx000000000000 Q
b100 S
1$
#2479000
0$
#2497500
b1 [
b1110 5
b1110 W
1Z
b0 \
b1100 -"
b1100 $"
b1100 y
b1100 p
b1110 R
b0xxxxxxxxxxxxxxxx0000000000000 Q
b100 S
1$
#2516000
0$
#2534500
b1101 p
b1101 y
b1101 $"
b1101 -"
b1 \
b1111 R
b0xxxxxxxxxxxxxxxx00000000000000 Q
b100 S
1$
#2553000
0$
#2571500
b10 \
b0 -"
1)"
b0 $"
1~
b0 y
1u
b0 p
1l
b10000 R
b0xxxxxxxxxxxxxxxx000000000000000 Q
b100 S
1$
#2590000
0$
#2608500
b1 p
b1 y
b1 $"
b1 -"
b11 \
b10001 R
bx0000000000000000 Q
b100 S
1$
#2627000
0$
#2645500
0Z
b0 \
b10 -"
b10 $"
b10 y
b10 p
b0 R
1$
#2664000
0$
#2682500
b11 p
b11 y
b11 $"
b11 -"
b1 \
b1 R
b0xxxxxxxxxxxxxxxx Q
1$
#2701000
0$
#2719500
b10 \
b100 -"
b100 $"
b100 y
b100 p
b10 R
b0xxxxxxxxxxxxxxxx0 Q
b100 S
1$
#2738000
0$
#2756500
b101 p
b101 y
b101 $"
b101 -"
b11 \
b11 R
b0xxxxxxxxxxxxxxxx00 Q
b100 S
1$
#2775000
0$
#2793500
b10 [
b1101 5
b1101 W
1Z
b0 \
b110 -"
b110 $"
b110 y
b110 p
b100 R
b0xxxxxxxxxxxxxxxx000 Q
b100 S
1$
#2812000
0$
#2830500
b111 p
b111 y
b111 $"
b111 -"
b1 \
b101 R
b0xxxxxxxxxxxxxxxx0000 Q
b100 S
1$
#2849000
0$
#2867500
b10 \
b1000 -"
b1000 $"
b1000 y
b1000 p
b110 R
b0xxxxxxxxxxxxxxxx00000 Q
b100 S
1$
#2886000
0$
#2904500
b1001 p
b1001 y
b1001 $"
b1001 -"
b11 \
b111 R
b0xxxxxxxxxxxxxxxx000000 Q
b100 S
1$
#2923000
0$
#2941500
0Z
b0 \
b1010 -"
b1010 $"
b1010 y
b1010 p
b1000 R
b0xxxxxxxxxxxxxxxx0000000 Q
b100 S
1$
#2960000
0$
#2978500
b1011 p
b1011 y
b1011 $"
b1011 -"
b1 \
b1001 R
b0xxxxxxxxxxxxxxxx00000000 Q
b100 S
1$
#2997000
0$
#3015500
b10 \
b1100 -"
b1100 $"
b1100 y
b1100 p
b1010 R
b0xxxxxxxxxxxxxxxx000000000 Q
b100 S
1$
#3034000
0$
#3052500
b1101 p
b1101 y
b1101 $"
b1101 -"
b11 \
b1011 R
b0xxxxxxxxxxxxxxxx0000000000 Q
b100 S
1$
#3071000
0$
#3089500
b11 [
b1011 5
b1011 W
1Z
b0 \
b0 -"
0)"
b0 $"
0~
b0 y
0u
b0 p
0l
b1100 R
b0xxxxxxxxxxxxxxxx00000000000 Q
b100 S
1$
#3108000
0$
#3126500
b1 p
b1 y
b1 $"
b1 -"
b1 \
b1101 R
b0xxxxxxxxxxxxxxxx000000000000 Q
b100 S
1$
#3145000
0$
#3163500
b10 \
b10 -"
b10 $"
b10 y
b10 p
b1110 R
b0xxxxxxxxxxxxxxxx0000000000000 Q
b100 S
1$
#3182000
0$
#3200500
b11 p
b11 y
b11 $"
b11 -"
b11 \
b1111 R
b0xxxxxxxxxxxxxxxx00000000000000 Q
b100 S
1$
#3219000
0$
#3237500
0Z
b0 \
b100 -"
b100 $"
b100 y
b100 p
b10000 R
b0xxxxxxxxxxxxxxxx000000000000000 Q
b100 S
1$
#3256000
0$
#3274500
b101 p
b101 y
b101 $"
b101 -"
b1 \
b10001 R
bx0000000000000000 Q
b100 S
1$
#3293000
0$
#3311500
b10 \
b110 -"
b110 $"
b110 y
b110 p
b0 R
1$
#3330000
0$
#3348500
b111 p
b111 y
b111 $"
b111 -"
b11 \
b1 R
b0xxxxxxxxxxxxxxxx Q
1$
#3367000
0$
#3385500
b0 [
b111 5
b111 W
1Z
b0 \
b1000 -"
b1000 $"
b1000 y
b1000 p
b10 R
b0xxxxxxxxxxxxxxxx0 Q
b100 S
1$
#3404000
0$
#3422500
b1001 p
b1001 y
b1001 $"
b1001 -"
b1 \
b11 R
b0xxxxxxxxxxxxxxxx00 Q
b100 S
1$
#3441000
0$
#3459500
b10 \
b1010 -"
b1010 $"
b1010 y
b1010 p
b100 R
b0xxxxxxxxxxxxxxxx000 Q
b100 S
1$
#3478000
0$
#3496500
b1011 p
b1011 y
b1011 $"
b1011 -"
b11 \
b101 R
b0xxxxxxxxxxxxxxxx0000 Q
b100 S
1$
#3515000
0$
#3533500
0Z
b0 \
b1100 -"
b1100 $"
b1100 y
b1100 p
b110 R
b0xxxxxxxxxxxxxxxx00000 Q
b100 S
1$
#3552000
0$
#3570500
b1101 p
b1101 y
b1101 $"
b1101 -"
b1 \
b111 R
b0xxxxxxxxxxxxxxxx000000 Q
b100 S
1$
#3589000
0$
#3607500
b10 \
b0 -"
1)"
b0 $"
1~
b0 y
1u
b0 p
1l
b1000 R
b0xxxxxxxxxxxxxxxx0000000 Q
b100 S
1$
#3626000
0$
#3644500
b1 p
b1 y
b1 $"
b1 -"
b11 \
b1001 R
b0xxxxxxxxxxxxxxxx00000000 Q
b100 S
1$
#3663000
0$
#3681500
b1 [
b1110 5
b1110 W
1Z
b0 \
b10 -"
b10 $"
b10 y
b10 p
b1010 R
b0xxxxxxxxxxxxxxxx000000000 Q
b100 S
1$
#3700000
0$
#3718500
b11 p
b11 y
b11 $"
b11 -"
b1 \
b1011 R
b0xxxxxxxxxxxxxxxx0000000000 Q
b100 S
1$
#3737000
0$
#3755500
b10 \
b100 -"
b100 $"
b100 y
b100 p
b1100 R
b0xxxxxxxxxxxxxxxx00000000000 Q
b100 S
1$
#3774000
0$
#3792500
b101 p
b101 y
b101 $"
b101 -"
b11 \
b1101 R
b0xxxxxxxxxxxxxxxx000000000000 Q
b100 S
1$
#3811000
0$
#3829500
0Z
b0 \
b110 -"
b110 $"
b110 y
b110 p
b1110 R
b0xxxxxxxxxxxxxxxx0000000000000 Q
b100 S
1$
#3848000
0$
#3866500
b111 p
b111 y
b111 $"
b111 -"
b1 \
b1111 R
b0xxxxxxxxxxxxxxxx00000000000000 Q
b100 S
1$
#3885000
0$
#3903500
b10 \
b1000 -"
b1000 $"
b1000 y
b1000 p
b10000 R
b0xxxxxxxxxxxxxxxx000000000000000 Q
b100 S
1$
#3922000
0$
#3940500
b1001 p
b1001 y
b1001 $"
b1001 -"
b11 \
b10001 R
bx0000000000000000 Q
b100 S
1$
#3959000
0$
#3977500
b10 [
b1101 5
b1101 W
1Z
b0 \
b1010 -"
b1010 $"
b1010 y
b1010 p
b0 R
1$
#3996000
0$
#4014500
b1011 p
b1011 y
b1011 $"
b1011 -"
b1 \
b1 R
b0xxxxxxxxxxxxxxxx Q
1$
#4033000
0$
#4051500
b10 \
b1100 -"
b1100 $"
b1100 y
b1100 p
b10 R
b0xxxxxxxxxxxxxxxx0 Q
b100 S
1$
#4070000
0$
#4088500
b1101 p
b1101 y
b1101 $"
b1101 -"
b11 \
b11 R
b0xxxxxxxxxxxxxxxx00 Q
b100 S
1$
#4107000
0$
#4125500
0Z
b0 \
b0 -"
0)"
b0 $"
0~
b0 y
0u
b0 p
0l
b100 R
b0xxxxxxxxxxxxxxxx000 Q
b100 S
1$
#4144000
0$
#4162500
b1 p
b1 y
b1 $"
b1 -"
b1 \
b101 R
b0xxxxxxxxxxxxxxxx0000 Q
b100 S
1$
#4181000
0$
#4199500
b10 \
b10 -"
b10 $"
b10 y
b10 p
b110 R
b0xxxxxxxxxxxxxxxx00000 Q
b100 S
1$
#4218000
0$
#4236500
b11 p
b11 y
b11 $"
b11 -"
b11 \
b111 R
b0xxxxxxxxxxxxxxxx000000 Q
b100 S
1$
#4255000
0$
#4273500
b11 [
b1011 5
b1011 W
1Z
b0 \
b100 -"
b100 $"
b100 y
b100 p
b1000 R
b0xxxxxxxxxxxxxxxx0000000 Q
b100 S
1$
#4292000
0$
#4310500
b101 p
b101 y
b101 $"
b101 -"
b1 \
b1001 R
b0xxxxxxxxxxxxxxxx00000000 Q
b100 S
1$
#4329000
0$
#4347500
b10 \
b110 -"
b110 $"
b110 y
b110 p
b1010 R
b0xxxxxxxxxxxxxxxx000000000 Q
b100 S
1$
#4366000
0$
#4384500
b111 p
b111 y
b111 $"
b111 -"
b11 \
b1011 R
b0xxxxxxxxxxxxxxxx0000000000 Q
b100 S
1$
#4403000
0$
#4421500
0Z
b0 \
b1000 -"
b1000 $"
b1000 y
b1000 p
b1100 R
b0xxxxxxxxxxxxxxxx00000000000 Q
b100 S
1$
#4440000
0$
#4458500
b1001 p
b1001 y
b1001 $"
b1001 -"
b1 \
b1101 R
b0xxxxxxxxxxxxxxxx000000000000 Q
b100 S
1$
#4477000
0$
#4495500
b10 \
b1010 -"
b1010 $"
b1010 y
b1010 p
b1110 R
b0xxxxxxxxxxxxxxxx0000000000000 Q
b100 S
1$
#4514000
0$
#4532500
b1011 p
b1011 y
b1011 $"
b1011 -"
b11 \
b1111 R
b0xxxxxxxxxxxxxxxx00000000000000 Q
b100 S
1$
#4551000
0$
#4569500
b0 [
b111 5
b111 W
1Z
b0 \
b1100 -"
b1100 $"
b1100 y
b1100 p
b10000 R
b0xxxxxxxxxxxxxxxx000000000000000 Q
b100 S
1$
#4588000
0$
#4606500
b1101 p
b1101 y
b1101 $"
b1101 -"
b1 \
b10001 R
bx0000000000000000 Q
b100 S
1$
#4625000
0$
#4643500
b10 \
b0 -"
1)"
b0 $"
1~
b0 y
1u
b0 p
1l
b0 R
1$
#4662000
0$
#4680500
b1 p
b1 y
b1 $"
b1 -"
b11 \
b1 R
b0xxxxxxxxxxxxxxxx Q
1$
#4699000
0$
#4717500
0Z
b0 \
b10 -"
b10 $"
b10 y
b10 p
b10 R
b0xxxxxxxxxxxxxxxx0 Q
b100 S
1$
#4736000
0$
#4754500
b11 p
b11 y
b11 $"
b11 -"
b1 \
b11 R
b0xxxxxxxxxxxxxxxx00 Q
b100 S
1$
#4773000
0$
#4791500
b10 \
b100 -"
b100 $"
b100 y
b100 p
b100 R
b0xxxxxxxxxxxxxxxx000 Q
b100 S
1$
#4810000
0$
#4828500
b101 p
b101 y
b101 $"
b101 -"
b11 \
b101 R
b0xxxxxxxxxxxxxxxx0000 Q
b100 S
1$
#4847000
0$
