Tarea_3/src/build/module_rebote_tb.vcd
$date
	Wed Nov 20 11:10:35 2024
$end
$version
	Icarus Verilog
$end
$timescale
	1ps
$end
$scope module rebote_tb $end
$var wire 1 ! boton_sal $end
$var reg 1 " boton $end
$var reg 1 # clk $end
$scope module rebote_tbb $end
$var wire 1 " boton $end
$var wire 1 ! boton_sal $end
$var wire 1 # clk $end
$var wire 1 $ q2_com $end
$var wire 1 % q2 $end
$var wire 1 & q1 $end
$var wire 1 ' q0 $end
$var wire 1 ( clk_hab $end
$scope module clk_ha $end
$var wire 1 # clk $end
$var parameter 32 ) fre $end
$var parameter 32 * frecuencia $end
$var parameter 64 + max_cuenta $end
$var reg 1 ( clk_div $end
$var reg 5 , cuenta [4:0] $end
$upscope $end
$scope module ff1 $end
$var wire 1 " D $end
$var wire 1 # clk $end
$var wire 1 ( clk_hab $end
$var reg 1 ' Q $end
$upscope $end
$scope module ff2 $end
$var wire 1 ' D $end
$var wire 1 # clk $end
$var wire 1 ( clk_hab $end
$var reg 1 & Q $end
$upscope $end
$scope module ff3 $end
$var wire 1 & D $end
$var wire 1 # clk $end
$var wire 1 ( clk_hab $end
$var reg 1 % Q $end
$upscope $end
$upscope $end
$upscope $end
$enddefinitions $end
$comment Show the parameter values. $end
$dumpall
b1101 +
b1100110111111110011000000 *
b11110100001001000000 )
$end
#0
$dumpvars
b0 ,
0(
0'
0&
0%
1$
0#
0"
0!
$end
#10000
b1 ,
1#
#20000
0#
#25000
1"
#27000
0"
#30000
b10 ,
1#
#40000
0#
#47000
1"
#49000
0"
#50000
b11 ,
1"
1#
#51000
0"
#52000
1"
#60000
0#
#70000
b100 ,
1#
#80000
0#
#90000
b101 ,
1#
#100000
0#
#102000
0"
#110000
b110 ,
1#
#120000
0#
#130000
b111 ,
1#
#140000
0#
#150000
b1000 ,
1#
#160000
0#
#170000
b1001 ,
1#
#180000
0#
#190000
b1010 ,
1#
#200000
0#
#210000
b1011 ,
1#
#220000
0#
#230000
b1100 ,
1#
#240000
0#
#250000
b1101 ,
1#
#260000
0#
#270000
b0 ,
1(
1#
#280000
0#
#290000
b1 ,
1#
#300000
0#
#310000
b10 ,
1#
#320000
0#
#330000
b11 ,
1#
#340000
0#
#350000
b100 ,
1#
#360000
0#
#370000
b101 ,
1#
#380000
0#
#390000
b110 ,
1#
#400000
0#
#410000
b111 ,
1#
#420000
0#
#430000
b1000 ,
1#
#440000
0#
#450000
b1001 ,
1#
#460000
0#
#470000
b1010 ,
1#
#480000
0#
#490000
b1011 ,
1#
#500000
0#
#504000
1"
#506000
0"
#508000
1"
#510000
b1100 ,
0"
1#
#512000
1"
#520000
0#
#530000
b1101 ,
1'
1#
#540000
0#
#550000
1!
1&
b0 ,
0(
1#
#560000
0#
#562000
0"
#570000
b1 ,
1#
#580000
0#
#590000
b10 ,
1#
#600000
0#
#610000
b11 ,
1#
#620000
0#
#630000
b100 ,
1#
#640000
0#
#650000
b101 ,
1#
#660000
0#
#670000
b110 ,
1#
#680000
0#
#690000
b111 ,
1#
#700000
0#
#710000
b1000 ,
1#
#720000
0#
#730000
b1001 ,
1#
#740000
0#
#750000
b1010 ,
1#
#760000
0#
#770000
b1011 ,
1#
#780000
0#
#790000
b1100 ,
1#
#800000
0#
#810000
b1101 ,
1#
#820000
0#
#830000
b0 ,
1(
1#
#840000
0#
#850000
0!
0$
b1 ,
0'
1%
1#
#860000
0#
#870000
0&
b10 ,
1#
#880000
0#
#890000
1$
b11 ,
0%
1#
#900000
0#
#910000
b100 ,
1#
#920000
0#
#930000
b101 ,
1#
#940000
0#
#950000
b110 ,
1#
#960000
0#
#964000
1"
#966000
0"
#968000
1"
#970000
b111 ,
0"
1#
#972000
1"
#980000
0#
#990000
1'
b1000 ,
1#
#1000000
0#
#1010000
1!
b1001 ,
1&
1#
#1020000
0#
#1022000
0"
#1030000
0!
0$
1%
0'
b1010 ,
1#
#1040000
0#
#1050000
b1011 ,
0&
1#
#1060000
0#
#1070000
1$
0%
b1100 ,
1#
#1080000
0#
#1090000
b1101 ,
1#
#1100000
0#
#1110000
b0 ,
0(
1#
#1120000
0#
#1130000
b1 ,
1#
#1140000
0#
#1150000
b10 ,
1#
#1160000
0#
#1170000
b11 ,
1#
#1180000
0#
#1190000
b100 ,
1#
#1200000
0#
#1210000
b101 ,
1#
#1220000
0#
#1230000
b110 ,
1#
#1240000
0#
#1250000
b111 ,
1#
#1260000
0#
#1270000
b1000 ,
1#
#1280000
0#
#1290000
b1001 ,
1#
#1300000
0#
#1310000
b1010 ,
1#
#1320000
0#
#1330000
b1011 ,
1#
#1340000
0#
#1350000
b1100 ,
1#
#1360000
0#
#1370000
b1101 ,
1#
#1380000
0#
#1390000
b0 ,
1(
1#
#1400000
0#
#1410000
b1 ,
1#
#1420000
0#
#1422000
1"
#1427000
0"
#1429000
1"
#1430000
1'
b10 ,
1#
#1440000
0#
#1449000
0"
#1450000
1!
b11 ,
0'
1&
1#
#1460000
0#
#1470000
0$
0!
1%
0&
b100 ,
1#
#1480000
0#
#1490000
1$
b101 ,
0%
1#
#1500000
0#
#1510000
b110 ,
1#
#1520000
0#
#1529000
1"
#1530000
b111 ,
1'
1#
#1540000
0#
#1550000
1!
1&
b1000 ,
1#
#1559000
0"
#1560000
0#
#1562000
1"
#1564000
0"
#1570000
0!
0$
b1001 ,
0'
1%
1#
#1580000
0#
#1590000
0&
b1010 ,
1#
#1600000
0#
#1610000
1$
b1011 ,
0%
1#
#1620000
0#
#1630000
b1100 ,
1#
#1640000
0#
#1650000
b1101 ,
1#
#1660000
0#
#1664000
1"
#1665000
0"
#1670000
b0 ,
0(
1#
#1680000
0#
#1690000
b1 ,
1#
#1700000
0#
#1710000
b10 ,
1#
#1720000
0#
#1730000
b11 ,
1#
#1740000
0#
#1750000
b100 ,
1#
#1760000
0#
#1765000
1"
#1766000
0"
#1768000
1"
#1770000
b101 ,
1#
#1774000
0"
#1776000
1"
#1780000
0#
#1790000
b110 ,
1#
#1800000
0#
#1801000
0"
#1810000
b111 ,
1#
#1820000
0#
#1830000
b1000 ,
1#
#1840000
0#
#1850000
b1001 ,
1#
#1860000
0#
#1870000
b1010 ,
1#
#1880000
0#
#1890000
b1011 ,
1#
#1900000
0#
#1901000
1"
