Tarea 2/src/build/module_capturador_de_teclas_tb.vcd
$date
	Fri Oct 04 11:34:01 2024
$end
$version
	Icarus Verilog
$end
$timescale
	1ps
$end
$scope module capturador_de_teclas_tb $end
$var wire 4 ! tecla_pre [3:0] $end
$var wire 1 " suma $end
$var wire 1 # igual $end
$var reg 1 $ clk $end
$var reg 1 % col_0 $end
$var reg 1 & col_1 $end
$var reg 1 ' col_2 $end
$var reg 1 ( col_3 $end
$var reg 1 ) rst $end
$scope module capturador_de_teclas_tbb $end
$var wire 1 $ clk $end
$var wire 1 % col_0 $end
$var wire 1 & col_1 $end
$var wire 1 ' col_2 $end
$var wire 1 ( col_3 $end
$var wire 1 ) rst $end
$var wire 4 * tecla_pre [3:0] $end
$var wire 1 " suma $end
$var wire 1 # igual $end
$var wire 4 + fila_ent [3:0] $end
$var wire 1 , col_33 $end
$var wire 1 - col_22 $end
$var wire 1 . col_11 $end
$var wire 1 / col_00 $end
$var wire 1 0 clk_div $end
$scope module cont_ani_inst $end
$var wire 1 $ clk $end
$var wire 4 1 fila [3:0] $end
$var wire 1 ) rst $end
$var reg 4 2 fila_encendida [3:0] $end
$upscope $end
$scope module detector_col_inst $end
$var wire 1 $ clk $end
$var wire 4 3 fila [3:0] $end
$var wire 1 ) rst $end
$var wire 4 4 tecla_pre [3:0] $end
$var wire 1 " suma $end
$var wire 1 # igual $end
$var wire 1 , col_3 $end
$var wire 1 - col_2 $end
$var wire 1 . col_1 $end
$var wire 1 / col_0 $end
$var reg 5 5 estado_act [4:0] $end
$var reg 5 6 estado_sig [4:0] $end
$var reg 4 7 salida [3:0] $end
$upscope $end
$scope module divisor_inst $end
$var wire 1 $ clk $end
$var parameter 32 8 fre $end
$var parameter 32 9 frecuencia $end
$var parameter 64 : max_cuenta $end
$var reg 1 0 clk_div $end
$var reg 5 ; cuenta [4:0] $end
$upscope $end
$scope module rebote_ins0 $end
$var wire 1 % boton $end
$var wire 1 / boton_sal $end
$var wire 1 $ clk $end
$var wire 1 < q2_com $end
$var wire 1 = q2 $end
$var wire 1 > q1 $end
$var wire 1 ? q0 $end
$var wire 1 @ clk_hab $end
$scope module clk_ha $end
$var wire 1 $ clk $end
$var parameter 32 A fre $end
$var parameter 32 B frecuencia $end
$var parameter 64 C max_cuenta $end
$var reg 1 @ clk_div $end
$var reg 5 D cuenta [4:0] $end
$upscope $end
$scope module ff1 $end
$var wire 1 % D $end
$var wire 1 $ clk $end
$var wire 1 @ clk_hab $end
$var reg 1 ? Q $end
$upscope $end
$scope module ff2 $end
$var wire 1 ? D $end
$var wire 1 $ clk $end
$var wire 1 @ clk_hab $end
$var reg 1 > Q $end
$upscope $end
$scope module ff3 $end
$var wire 1 > D $end
$var wire 1 $ clk $end
$var wire 1 @ clk_hab $end
$var reg 1 = Q $end
$upscope $end
$upscope $end
$scope module rebote_ins1 $end
$var wire 1 & boton $end
$var wire 1 . boton_sal $end
$var wire 1 $ clk $end
$var wire 1 E q2_com $end
$var wire 1 F q2 $end
$var wire 1 G q1 $end
$var wire 1 H q0 $end
$var wire 1 I clk_hab $end
$scope module clk_ha $end
$var wire 1 $ clk $end
$var parameter 32 J fre $end
$var parameter 32 K frecuencia $end
$var parameter 64 L max_cuenta $end
$var reg 1 I clk_div $end
$var reg 5 M cuenta [4:0] $end
$upscope $end
$scope module ff1 $end
$var wire 1 & D $end
$var wire 1 $ clk $end
$var wire 1 I clk_hab $end
$var reg 1 H Q $end
$upscope $end
$scope module ff2 $end
$var wire 1 H D $end
$var wire 1 $ clk $end
$var wire 1 I clk_hab $end
$var reg 1 G Q $end
$upscope $end
$scope module ff3 $end
$var wire 1 G D $end
$var wire 1 $ clk $end
$var wire 1 I clk_hab $end
$var reg 1 F Q $end
$upscope $end
$upscope $end
$scope module rebote_ins2 $end
$var wire 1 ' boton $end
$var wire 1 - boton_sal $end
$var wire 1 $ clk $end
$var wire 1 N q2_com $end
$var wire 1 O q2 $end
$var wire 1 P q1 $end
$var wire 1 Q q0 $end
$var wire 1 R clk_hab $end
$scope module clk_ha $end
$var wire 1 $ clk $end
$var parameter 32 S fre $end
$var parameter 32 T frecuencia $end
$var parameter 64 U max_cuenta $end
$var reg 1 R clk_div $end
$var reg 5 V cuenta [4:0] $end
$upscope $end
$scope module ff1 $end
$var wire 1 ' D $end
$var wire 1 $ clk $end
$var wire 1 R clk_hab $end
$var reg 1 Q Q $end
$upscope $end
$scope module ff2 $end
$var wire 1 Q D $end
$var wire 1 $ clk $end
$var wire 1 R clk_hab $end
$var reg 1 P Q $end
$upscope $end
$scope module ff3 $end
$var wire 1 P D $end
$var wire 1 $ clk $end
$var wire 1 R clk_hab $end
$var reg 1 O Q $end
$upscope $end
$upscope $end
$scope module rebote_ins3 $end
$var wire 1 ( boton $end
$var wire 1 , boton_sal $end
$var wire 1 $ clk $end
$var wire 1 W q2_com $end
$var wire 1 X q2 $end
$var wire 1 Y q1 $end
$var wire 1 Z q0 $end
$var wire 1 [ clk_hab $end
$scope module clk_ha $end
$var wire 1 $ clk $end
$var parameter 32 \ fre $end
$var parameter 32 ] frecuencia $end
$var parameter 64 ^ max_cuenta $end
$var reg 1 [ clk_div $end
$var reg 5 _ cuenta [4:0] $end
$upscope $end
$scope module ff1 $end
$var wire 1 ( D $end
$var wire 1 $ clk $end
$var wire 1 [ clk_hab $end
$var reg 1 Z Q $end
$upscope $end
$scope module ff2 $end
$var wire 1 Z D $end
$var wire 1 $ clk $end
$var wire 1 [ clk_hab $end
$var reg 1 Y Q $end
$upscope $end
$scope module ff3 $end
$var wire 1 Y D $end
$var wire 1 $ clk $end
$var wire 1 [ clk_hab $end
$var reg 1 X Q $end
$upscope $end
$upscope $end
$upscope $end
$upscope $end
$enddefinitions $end
$comment Show the parameter values. $end
$dumpall
b1101 ^
b1100110111111110011000000 ]
b11110100001001000000 \
b1101 U
b1100110111111110011000000 T
b11110100001001000000 S
b1101 L
b1100110111111110011000000 K
b11110100001001000000 J
b1101 C
b1100110111111110011000000 B
b11110100001001000000 A
b1101 :
b1100110111111110011000000 9
b11110100001001000000 8
$end
#0
$dumpvars
b0 _
0[
0Z
0Y
0X
1W
b0 V
0R
0Q
0P
0O
1N
b0 M
0I
0H
0G
0F
1E
b0 D
0@
0?
0>
0=
1<
b0 ;
bx 7
b0 6
bx 5
bx 4
bx 3
bx 2
bx 1
00
0/
0.
0-
0,
bx +
bx *
1)
0(
0'
0&
0%
0$
x#
x"
bx !
$end
#18500
b1 6
b1 +
b1 1
b1 3
b1 2
b1 D
b1 M
b1 V
b1 _
b0 5
0"
0#
b0 !
b0 *
b0 4
b0 7
b1 ;
1$
#20000
0)
#37000
0$
#50000
1%
#55000
0%
#55500
b10 6
b10 ;
b1 5
b10 _
b10 V
b10 M
b10 D
b10 +
b10 1
b10 3
b10 2
1$
#60000
1%
#61000
0%
#66000
1%
#69000
0%
#72000
1%
#74000
0$
#92500
b11 6
b100 +
b100 1
b100 3
b100 2
b11 D
b11 M
b11 V
b11 _
b10 5
b11 ;
1$
#111000
0$
#129500
b0 6
b100 ;
b11 5
b100 _
b100 V
b100 M
b100 D
b1000 +
b1000 1
b1000 3
b1000 2
1$
#148000
0$
#166500
b1 6
b1 +
b1 1
b1 3
b1 2
b101 D
b101 M
b101 V
b101 _
b0 5
b101 ;
1$
#185000
0$
#203500
b10 6
b110 ;
b1 5
b110 _
b110 V
b110 M
b110 D
b10 +
b10 1
b10 3
b10 2
1$
#222000
0$
#240500
b11 6
b100 +
b100 1
b100 3
b100 2
b111 D
b111 M
b111 V
b111 _
b10 5
b111 ;
1$
#259000
0$
#272000
0%
#274000
1%
#277500
b0 6
b1000 ;
b11 5
b1000 _
b1000 V
b1000 M
b1000 D
b1000 +
b1000 1
b1000 3
b1000 2
1$
#296000
0$
#314500
b1 6
b1 +
b1 1
b1 3
b1 2
b1001 D
b1001 M
b1001 V
b1001 _
b0 5
b1001 ;
1$
#333000
0$
#351500
b10 6
b1010 ;
b1 5
b1010 _
b1010 V
b1010 M
b1010 D
b10 +
b10 1
b10 3
b10 2
1$
#370000
0$
#388500
b11 6
b100 +
b100 1
b100 3
b100 2
b1011 D
b1011 M
b1011 V
b1011 _
b10 5
b1011 ;
1$
#407000
0$
#425500
b0 6
b1100 ;
b11 5
b1100 _
b1100 V
b1100 M
b1100 D
b1000 +
b1000 1
b1000 3
b1000 2
1$
#444000
0$
#462500
b1 6
b1 +
b1 1
b1 3
b1 2
b1101 D
b1101 M
b1101 V
b1101 _
b0 5
b1101 ;
1$
#474000
0%
#479000
1%
#481000
0$
#482000
0%
#499500
b10 6
b0 ;
10
b1 5
b0 _
1[
b0 V
1R
b0 M
1I
b0 D
1@
b10 +
b10 1
b10 3
b10 2
1$
#512000
1&
#517000
0&
#518000
0$
#536500
b11 6
b100 +
b100 1
b100 3
b100 2
b1 D
b1 M
b1 V
b1 _
b10 5
b1 ;
1$
#547000
1&
#555000
0$
#573500
b0 6
b10 ;
b11 5
b10 _
b10 V
1H
b10 M
b10 D
b1000 +
b1000 1
b1000 3
b1000 2
1$
#577000
0&
#580000
1&
#584000
0&
#592000
0$
#610500
1.
b101 6
b1 +
b1 1
b1 3
b1 2
b11 D
b11 M
0H
1G
b11 V
b11 _
b0 5
b11 ;
1$
#614000
1'
#618000
0'
#629000
0$
#647500
0E
0.
b0 6
b100 ;
b1 !
b1 *
b1 4
b1 7
b101 5
b100 _
b100 V
1F
0G
b100 M
b100 D
b10 +
b10 1
b10 3
b10 2
1$
#648000
1'
#666000
0$
#678000
0'
#683000
1'
#684500
1E
b1 6
b100 +
b100 1
b100 3
b100 2
b101 D
b101 M
0F
b101 V
1Q
b101 _
b0 5
b0 !
b0 *
b0 4
b0 7
b101 ;
1$
#686000
0'
#703000
0$
#716000
1(
#721000
0(
#721500
1-
b10 6
b110 ;
b1 5
b110 _
1P
0Q
b110 V
b110 M
b110 D
b1000 +
b1000 1
b1000 3
b1000 2
1$
#726000
1(
#740000
0$
#756000
0(
#758500
0-
0N
b11 6
b1 +
b1 1
b1 3
b1 2
b111 D
b111 M
b111 V
0P
1O
b111 _
b10 5
b111 ;
1$
#760000
1(
#777000
0$
#790000
0(
#795500
1N
b0 6
b1000 ;
b11 5
b1000 _
0O
b1000 V
b1000 M
b1000 D
b10 +
b10 1
b10 3
b10 2
1$
#814000
0$
#832500
b1 6
b100 +
b100 1
b100 3
b100 2
b1001 D
b1001 M
b1001 V
b1001 _
b0 5
b1001 ;
1$
#851000
0$
#869500
b10 6
b1010 ;
b1 5
b1010 _
b1010 V
b1010 M
b1010 D
b1000 +
b1000 1
b1000 3
b1000 2
1$
