Tarea 2/src/build/module_rebote_tb.vcd
$date
	Mon Sep 30 18:25:49 2024
$end
$version
	Icarus Verilog
$end
$timescale
	1ps
$end
$scope module rebote_tb $end
$var wire 1 ! boton_sal $end
$var reg 1 " boton $end
$var reg 1 # clk $end
$scope module rebote_tbb $end
$var wire 1 " boton $end
$var wire 1 ! boton_sal $end
$var wire 1 # clk $end
$var wire 1 $ q2_com $end
$var wire 1 % q2 $end
$var wire 1 & q1 $end
$var wire 1 ' q0 $end
$var wire 1 ( clk_hab $end
$scope module clk_ha $end
$var wire 1 # clk $end
$var parameter 32 ) fre $end
$var parameter 32 * frecuencia $end
$var parameter 64 + max_cuenta $end
$var reg 1 ( clk_div $end
$var reg 5 , cuenta [4:0] $end
$upscope $end
$scope module ff1 $end
$var wire 1 " D $end
$var wire 1 # clk $end
$var wire 1 ( clk_hab $end
$var reg 1 ' Q $end
$upscope $end
$scope module ff2 $end
$var wire 1 ' D $end
$var wire 1 # clk $end
$var wire 1 ( clk_hab $end
$var reg 1 & Q $end
$upscope $end
$scope module ff3 $end
$var wire 1 & D $end
$var wire 1 # clk $end
$var wire 1 ( clk_hab $end
$var reg 1 % Q $end
$upscope $end
$upscope $end
$upscope $end
$enddefinitions $end
$comment Show the parameter values. $end
$dumpall
b1101 +
b1100110111111110011000000 *
b11110100001001000000 )
$end
#0
$dumpvars
b0 ,
0(
0'
0&
0%
1$
0#
0"
0!
$end
#2000
1"
#10000
b1 ,
1#
#20000
0#
#22000
0"
#24000
1"
#30000
b10 ,
1#
#40000
0#
#50000
b11 ,
1#
#60000
0#
#70000
b100 ,
1#
#80000
0#
#90000
b101 ,
1#
#100000
0#
#110000
b110 ,
1#
#120000
0#
#130000
b111 ,
1#
#140000
0#
#150000
b1000 ,
1#
#160000
0#
#170000
b1001 ,
1#
#180000
0#
#190000
b1010 ,
1#
#200000
0#
#210000
b1011 ,
1#
#220000
0#
#230000
b1100 ,
1#
#240000
0#
#250000
b1101 ,
1#
#260000
0#
#270000
b0 ,
1(
1#
#280000
0#
#290000
b1 ,
1'
1#
#300000
0#
#310000
1!
1&
b10 ,
1#
#320000
0#
#330000
0!
0$
b11 ,
1%
1#
#340000
0#
#350000
b100 ,
1#
#360000
0#
#370000
b101 ,
1#
#380000
0#
#390000
b110 ,
1#
#400000
0#
#410000
b111 ,
1#
#420000
0#
#430000
b1000 ,
1#
#440000
0#
#450000
b1001 ,
1#
#460000
0#
#470000
b1010 ,
1#
#480000
0#
#490000
b1011 ,
1#
#500000
b1100 ,
1#
#510000
0#
#520000
b1101 ,
1#
#524000
0"
#530000
0#
#540000
0'
b0 ,
0(
1#
#550000
0#
#560000
b1 ,
1#
#570000
0#
#580000
b10 ,
1#
#590000
0#
#600000
b11 ,
1#
#610000
0#
#620000
b100 ,
1#
#630000
0#
#640000
b101 ,
1#
#650000
0#
#660000
b110 ,
1#
#670000
0#
#680000
b111 ,
1#
#690000
0#
#700000
b1000 ,
1#
#710000
0#
#720000
b1001 ,
1#
#730000
0#
#740000
b1010 ,
1#
#750000
0#
#760000
b1011 ,
1#
#770000
0#
#780000
b1100 ,
1#
#790000
0#
#800000
b1101 ,
1#
#810000
0#
#820000
b0 ,
1(
1#
#830000
0#
#840000
b1 ,
0&
1#
#850000
0#
#860000
1$
0%
b10 ,
1#
#870000
0#
#880000
b11 ,
1#
#890000
0#
#900000
b100 ,
1#
#910000
0#
#920000
b101 ,
1#
#924000
1"
#929000
0"
#930000
0#
#931000
1"
#940000
1'
b110 ,
1#
#950000
0#
#951000
0"
#960000
1!
b111 ,
0'
1&
1#
#970000
0#
#980000
0$
0!
1%
0&
b1000 ,
1#
#990000
0#
#1000000
1$
b1001 ,
0%
0#
#1010000
b1010 ,
1#
#1020000
0#
#1030000
b1011 ,
1#
#1031000
1"
#1040000
0#
#1041000
0"
#1046000
1"
#1048000
0"
#1050000
b1100 ,
1#
#1060000
0#
#1070000
b1101 ,
1#
#1080000
0#
#1090000
b0 ,
0(
1#
#1100000
0#
#1110000
b1 ,
1#
#1120000
0#
#1130000
b10 ,
1#
#1140000
0#
#1148000
1"
